hardware/simulation/icarus/knn.vcd
$date
	Mon Dec  7 12:27:52 2020
$end
$version
	Icarus Verilog
$end
$timescale
	1ps
$end
$scope module dist_calc $end
$var wire 33 ! DATA_OUT [32:0] $end
$var wire 16 " DATA_X1 [15:0] $end
$var wire 16 # DATA_X2 [15:0] $end
$var wire 16 $ DATA_Y1 [15:0] $end
$var wire 16 % DATA_Y2 [15:0] $end
$var reg 33 & result [32:0] $end
$var reg 32 ' sqr1 [31:0] $end
$var reg 32 ( sqr2 [31:0] $end
$var reg 32 ) sub1 [31:0] $end
$var reg 32 * sub2 [31:0] $end
$upscope $end
$scope module iob_knn $end
$var wire 3 + address [2:0] $end
$var wire 1 , clk $end
$var wire 32 - rdata [31:0] $end
$var wire 1 . ready $end
$var wire 1 / rst $end
$var wire 1 0 valid $end
$var wire 32 1 wdata [31:0] $end
$var wire 4 2 wstrb [3:0] $end
$var wire 8 3 DATA_OUT [7:0] $end
$var reg 32 4 DATA_1 [31:0] $end
$var reg 32 5 DATA_2 [31:0] $end
$var reg 16 6 DATA_X1 [15:0] $end
$var reg 16 7 DATA_X2 [15:0] $end
$var reg 16 8 DATA_Y1 [15:0] $end
$var reg 16 9 DATA_Y2 [15:0] $end
$var reg 1 : DONE $end
$var reg 1 ; KNN_RESET $end
$var reg 4 < SEL [3:0] $end
$var reg 32 = rdata_int [31:0] $end
$var reg 1 > ready_int $end
$var reg 1 ? rst_int $end
$var reg 1 @ write $end
$scope module sorter0 $end
$var wire 8 A DATA_OUT [7:0] $end
$var wire 16 B DATA_X1 [15:0] $end
$var wire 16 C DATA_X2 [15:0] $end
$var wire 16 D DATA_Y1 [15:0] $end
$var wire 16 E DATA_Y2 [15:0] $end
$var wire 1 : DONE_aux $end
$var wire 4 F SEL [3:0] $end
$var wire 1 , clk $end
$var wire 1 ? rst $end
$var wire 1 0 valid $end
$var reg 33 G DIST [32:0] $end
$var reg 1 H DONE $end
$var reg 8 I idx_cnt [7:0] $end
$var reg 8 J idx_out [7:0] $end
$var reg 1 K ready $end
$var reg 32 L sqr1 [31:0] $end
$var reg 32 M sqr2 [31:0] $end
$var reg 32 N sub1 [31:0] $end
$var reg 32 O sub2 [31:0] $end
$var integer 32 P i [31:0] $end
$var integer 32 Q j [31:0] $end
$var integer 32 R m [31:0] $end
$var integer 32 S n [31:0] $end
$upscope $end
$upscope $end
$scope module knn_tb $end
$var wire 8 T DATA_OUT [7:0] $end
$var reg 16 U DATA_X1 [15:0] $end
$var reg 16 V DATA_X2 [15:0] $end
$var reg 16 W DATA_Y1 [15:0] $end
$var reg 16 X DATA_Y2 [15:0] $end
$var reg 1 Y DONE $end
$var reg 4 Z SEL [3:0] $end
$var reg 1 [ clk $end
$var reg 1 \ ready $end
$var reg 1 ] rst $end
$var integer 32 ^ i [31:0] $end
$var integer 32 _ j [31:0] $end
$var integer 32 ` k [31:0] $end
$scope module sorter0 $end
$var wire 8 a DATA_OUT [7:0] $end
$var wire 16 b DATA_X1 [15:0] $end
$var wire 16 c DATA_X2 [15:0] $end
$var wire 16 d DATA_Y1 [15:0] $end
$var wire 16 e DATA_Y2 [15:0] $end
$var wire 1 Y DONE_aux $end
$var wire 4 f SEL [3:0] $end
$var wire 1 [ clk $end
$var wire 1 ] rst $end
$var wire 1 \ valid $end
$var reg 33 g DIST [32:0] $end
$var reg 1 h DONE $end
$var reg 8 i idx_cnt [7:0] $end
$var reg 8 j idx_out [7:0] $end
$var reg 1 k ready $end
$var reg 32 l sqr1 [31:0] $end
$var reg 32 m sqr2 [31:0] $end
$var reg 32 n sub1 [31:0] $end
$var reg 32 o sub2 [31:0] $end
$var integer 32 p i [31:0] $end
$var integer 32 q j [31:0] $end
$var integer 32 r m [31:0] $end
$var integer 32 s n [31:0] $end
$upscope $end
$upscope $end
$scope module knn_tb $end
$scope module sorter0 $end
$var reg 33 t \DATA_OUT_INT[0] [32:0] $end
$upscope $end
$upscope $end
$scope module knn_tb $end
$scope module sorter0 $end
$var reg 9 u \idx_out_int[0] [8:0] $end
$upscope $end
$upscope $end
$scope module knn_tb $end
$scope module sorter0 $end
$var reg 33 v \DATA_OUT_INT[1] [32:0] $end
$upscope $end
$upscope $end
$scope module knn_tb $end
$scope module sorter0 $end
$var reg 9 w \idx_out_int[1] [8:0] $end
$upscope $end
$upscope $end
$scope module knn_tb $end
$scope module sorter0 $end
$var reg 33 x \DATA_OUT_INT[2] [32:0] $end
$upscope $end
$upscope $end
$scope module knn_tb $end
$scope module sorter0 $end
$var reg 9 y \idx_out_int[2] [8:0] $end
$upscope $end
$upscope $end
$scope module knn_tb $end
$scope module sorter0 $end
$var reg 33 z \DATA_OUT_INT[3] [32:0] $end
$upscope $end
$upscope $end
$scope module knn_tb $end
$scope module sorter0 $end
$var reg 9 { \idx_out_int[3] [8:0] $end
$upscope $end
$upscope $end
$scope module knn_tb $end
$scope module sorter0 $end
$var reg 33 | \DATA_OUT_INT[4] [32:0] $end
$upscope $end
$upscope $end
$scope module knn_tb $end
$scope module sorter0 $end
$var reg 9 } \idx_out_int[4] [8:0] $end
$upscope $end
$upscope $end
$scope module knn_tb $end
$scope module sorter0 $end
$var reg 33 ~ \DATA_OUT_INT[5] [32:0] $end
$upscope $end
$upscope $end
$scope module knn_tb $end
$scope module sorter0 $end
$var reg 9 !" \idx_out_int[5] [8:0] $end
$upscope $end
$upscope $end
$scope module knn_tb $end
$scope module sorter0 $end
$var reg 33 "" \DATA_OUT_INT[6] [32:0] $end
$upscope $end
$upscope $end
$scope module knn_tb $end
$scope module sorter0 $end
$var reg 9 #" \idx_out_int[6] [8:0] $end
$upscope $end
$upscope $end
$scope module knn_tb $end
$scope module sorter0 $end
$var reg 33 $" \DATA_OUT_INT[7] [32:0] $end
$upscope $end
$upscope $end
$scope module knn_tb $end
$scope module sorter0 $end
$var reg 9 %" \idx_out_int[7] [8:0] $end
$upscope $end
$upscope $end
$scope module knn_tb $end
$scope module sorter0 $end
$var reg 33 &" \DATA_OUT_INT[8] [32:0] $end
$upscope $end
$upscope $end
$scope module knn_tb $end
$scope module sorter0 $end
$var reg 9 '" \idx_out_int[8] [8:0] $end
$upscope $end
$upscope $end
$scope module knn_tb $end
$scope module sorter0 $end
$var reg 33 (" \DATA_OUT_INT[9] [32:0] $end
$upscope $end
$upscope $end
$scope module knn_tb $end
$scope module sorter0 $end
$var reg 9 )" \idx_out_int[9] [8:0] $end
$upscope $end
$upscope $end
$enddefinitions $end
#0
$dumpvars
bx )"
bx ("
bx '"
bx &"
bx %"
bx $"
bx #"
bx ""
bx !"
bx ~
bx }
bx |
bx {
bx z
bx y
bx x
bx w
bx v
bx u
bx t
bx s
bx r
b1010 q
bx p
bx o
bx n
bx m
bx l
0k
bx j
bx i
xh
bx g
b0 f
bx e
b0 d
bx c
b0 b
bx a
bx `
bx _
b1010 ^
0]
0\
1[
b0 Z
1Y
bx X
b0 W
bx V
b0 U
bx T
bx S
bx R
bx Q
bx P
bx O
bx N
bx M
bx L
zK
bx J
bx I
xH
bx G
bx F
bx E
bx D
bx C
bx B
bx A
x@
x?
x>
b0 =
bx <
x;
x:
bx 9
bx 8
bx 7
bx 6
bx 5
bx 4
bx 3
bz 2
bz 1
z0
z/
x.
b0 -
z,
bz +
bx *
bx )
bx (
bx '
bx &
bz %
bz $
bz #
bz "
bx !
$end
#5000
0[
#7000
b1001 p
0h
b0 i
1]
#10000
b0 T
b0 a
b0 j
b1010 q
b1001 p
b11111111111111111111111111111111 t
b11111111111111111111111111111111 ("
b11111111111111111111111111111111 &"
b11111111111111111111111111111111 $"
b11111111111111111111111111111111 ""
b11111111111111111111111111111111 ~
b11111111111111111111111111111111 |
b11111111111111111111111111111111 z
b11111111111111111111111111111111 x
b11111111111111111111111111111111 v
b0 u
b0 )"
b0 '"
b0 %"
b0 #"
b0 !"
b0 }
b0 {
b0 y
b0 w
b1010 s
b1010 r
1[
#15000
0[
#17000
0]
#20000
1h
b1010 r
b1010 s
1[
#25000
1k
1\
0[
#30000
0h
b1010 s
b1010 r
0Y
1[
#35000
0k
0\
0[
#40000
b1010 r
b1010 s
b1 ^
b0 _
1[
#45000
0[
#50000
b10 ^
b1010 s
b1010 r
1[
#55000
0[
#60000
b1001 p
b10010 g
b1001 m
b1001 l
b11111111111111111111111111111101 o
b11111111111111111111111111111101 n
1k
b1010 r
b1010 s
b11 X
b11 e
b11 V
b11 c
1\
b11 ^
1[
#65000
0[
#70000
b1001 p
b1 i
b10010 t
b11111111111111111111111111111111 ("
b11111111111111111111111111111111 &"
b11111111111111111111111111111111 $"
b11111111111111111111111111111111 ""
b11111111111111111111111111111111 ~
b11111111111111111111111111111111 |
b11111111111111111111111111111111 z
b11111111111111111111111111111111 x
b11111111111111111111111111111111 v
b0 u
b0 )"
b0 '"
b0 %"
b0 #"
b0 !"
b0 }
b0 {
b0 y
b0 w
0k
0\
b100 ^
b1010 s
b1010 r
1[
#75000
0[
#80000
b1010 r
b1010 s
b101 ^
1[
#85000
0[
#90000
b1001 p
b1001000 g
b100100 m
b100100 l
b11111111111111111111111111111010 o
b11111111111111111111111111111010 n
1k
b110 X
b110 e
b110 V
b110 c
1\
b110 ^
b1010 s
b1010 r
1[
#95000
0[
#100000
b1010 q
b1001 p
b10 i
b0 )"
b0 '"
b0 %"
b0 #"
b0 !"
b0 }
b0 {
b0 y
b1 w
b11111111111111111111111111111111 ("
b11111111111111111111111111111111 &"
b11111111111111111111111111111111 $"
b11111111111111111111111111111111 ""
b11111111111111111111111111111111 ~
b11111111111111111111111111111111 |
b11111111111111111111111111111111 z
b11111111111111111111111111111111 x
b1001000 v
0k
b1010 r
b1010 s
0\
b111 ^
1[
#105000
0[
#110000
b1000 ^
b1010 s
b1010 r
1[
#115000
0[
#120000
b1001 p
b10100010 g
b1010001 m
b1010001 l
b11111111111111111111111111110111 o
b11111111111111111111111111110111 n
1k
b1010 r
b1010 s
b1001 X
b1001 e
b1001 V
b1001 c
1\
b1001 ^
1[
#125000
0[
#130000
b1010 q
b1001 p
b11 i
b11111111111111111111111111111111 ("
b11111111111111111111111111111111 &"
b11111111111111111111111111111111 $"
b11111111111111111111111111111111 ""
b11111111111111111111111111111111 ~
b11111111111111111111111111111111 |
b11111111111111111111111111111111 z
b10100010 x
b0 )"
b0 '"
b0 %"
b0 #"
b0 !"
b0 }
b0 {
b10 y
0k
0\
b1010 ^
b1010 s
b1010 r
1[
#135000
0[
#140000
b1010 r
b1010 s
b1011 ^
1[
#145000
0[
#150000
b1001 p
b100100000 g
b10010000 m
b10010000 l
b11111111111111111111111111110100 o
b11111111111111111111111111110100 n
1k
b1100 X
b1100 e
b1100 V
b1100 c
1\
b1100 ^
b1010 s
b1010 r
1[
#155000
0[
#160000
b1010 q
b1001 p
b100 i
b0 )"
b0 '"
b0 %"
b0 #"
b0 !"
b0 }
b11 {
b11111111111111111111111111111111 ("
b11111111111111111111111111111111 &"
b11111111111111111111111111111111 $"
b11111111111111111111111111111111 ""
b11111111111111111111111111111111 ~
b11111111111111111111111111111111 |
b100100000 z
0k
b1010 r
b1010 s
0\
b1101 ^
1[
#165000
0[
#170000
b1110 ^
b1010 s
b1010 r
1[
#175000
0[
#180000
b1001 p
b111000010 g
b11100001 m
b11100001 l
b11111111111111111111111111110001 o
b11111111111111111111111111110001 n
1k
b1010 r
b1010 s
b1111 X
b1111 e
b1111 V
b1111 c
1\
b1111 ^
1[
#185000
0[
#190000
b1010 q
b1001 p
b101 i
b11111111111111111111111111111111 ("
b11111111111111111111111111111111 &"
b11111111111111111111111111111111 $"
b11111111111111111111111111111111 ""
b11111111111111111111111111111111 ~
b111000010 |
b0 )"
b0 '"
b0 %"
b0 #"
b0 !"
b100 }
0k
0\
b10000 ^
b1010 s
b1010 r
1[
#195000
0[
#200000
b1010 r
b1010 s
b10001 ^
1[
#205000
0[
#210000
b1001 p
b1010001000 g
b101000100 m
b101000100 l
b11111111111111111111111111101110 o
b11111111111111111111111111101110 n
1k
b10010 X
b10010 e
b10010 V
b10010 c
1\
b10010 ^
b1010 s
b1010 r
1[
#215000
0[
#220000
b1010 q
b1001 p
b110 i
b0 )"
b0 '"
b0 %"
b0 #"
b101 !"
b11111111111111111111111111111111 ("
b11111111111111111111111111111111 &"
b11111111111111111111111111111111 $"
b11111111111111111111111111111111 ""
b1010001000 ~
0k
b1010 r
b1010 s
0\
b10011 ^
1[
#225000
0[
#230000
b10100 ^
b1010 s
b1010 r
1[
#235000
0[
#240000
b1001 p
b1101110010 g
b110111001 m
b110111001 l
b11111111111111111111111111101011 o
b11111111111111111111111111101011 n
1k
b1010 r
b1010 s
b10101 X
b10101 e
b10101 V
b10101 c
1\
b10101 ^
1[
#245000
0[
#250000
b1010 q
b1001 p
b111 i
b11111111111111111111111111111111 ("
b11111111111111111111111111111111 &"
b11111111111111111111111111111111 $"
b1101110010 ""
b0 )"
b0 '"
b0 %"
b110 #"
0k
0\
b10110 ^
b1010 s
b1010 r
1[
#255000
0[
#260000
b1010 r
b1010 s
b10111 ^
1[
#265000
0[
#270000
b1001 p
b10010000000 g
b1001000000 m
b1001000000 l
b11111111111111111111111111101000 o
b11111111111111111111111111101000 n
1k
b11000 X
b11000 e
b11000 V
b11000 c
1\
b11000 ^
b1010 s
b1010 r
1[
#275000
0[
#280000
b1010 q
b1001 p
b1000 i
b0 )"
b0 '"
b111 %"
b11111111111111111111111111111111 ("
b11111111111111111111111111111111 &"
b10010000000 $"
0k
b1010 r
b1010 s
0\
b11001 ^
1[
#285000
0[
#290000
b11010 ^
b1010 s
b1010 r
1[
#295000
0[
#300000
b1001 p
b10110110010 g
b1011011001 m
b1011011001 l
b11111111111111111111111111100101 o
b11111111111111111111111111100101 n
1k
b1010 r
b1010 s
b11011 X
b11011 e
b11011 V
b11011 c
1\
b11011 ^
1[
#305000
0[
#310000
b1010 q
b1001 p
b1001 i
b11111111111111111111111111111111 ("
b10110110010 &"
b0 )"
b1000 '"
0k
0\
b11100 ^
b1010 s
b1010 r
1[
#315000
0[
#320000
b1010 r
b1010 s
b11101 ^
1[
#325000
0[
#330000
b1001 p
b11100001000 g
b1110000100 m
b1110000100 l
b11111111111111111111111111100010 o
b11111111111111111111111111100010 n
1k
b11110 X
b11110 e
b11110 V
b11110 c
1\
b11110 ^
b1010 s
b1010 r
1[
#335000
0[
#340000
b1010 q
b1001 p
b1010 i
b1001 )"
b11100001000 ("
0k
b1010 r
b1010 s
0\
b11111 ^
1[
#345000
0[
#350000
b100000 ^
b1010 s
b1010 r
1[
#355000
0[
#360000
b1001 p
b100010000010 g
b10001000001 m
b10001000001 l
b11111111111111111111111111011111 o
b11111111111111111111111111011111 n
1k
b1010 r
b1010 s
b100001 X
b100001 e
b100001 V
b100001 c
1\
b100001 ^
1[
#365000
0[
#370000
b1001 p
b1011 i
0k
0\
b100010 ^
b1010 s
b1010 r
1[
#375000
0[
#380000
b1010 r
b1010 s
b100011 ^
1[
#385000
0[
#390000
b1001 p
b101000100000 g
b10100010000 m
b10100010000 l
b11111111111111111111111111011100 o
b11111111111111111111111111011100 n
1k
b100100 X
b100100 e
b100100 V
b100100 c
1\
b100100 ^
b1010 s
b1010 r
1[
#395000
0[
#400000
b1001 p
b1100 i
0k
b1010 r
b1010 s
0\
b100101 ^
1[
#405000
0[
#410000
b100110 ^
b1010 s
b1010 r
1[
#415000
0[
#420000
b1001 p
b101111100010 g
b10111110001 m
b10111110001 l
b11111111111111111111111111011001 o
b11111111111111111111111111011001 n
1k
b1010 r
b1010 s
b100111 X
b100111 e
b100111 V
b100111 c
1\
b100111 ^
1[
#425000
0[
#430000
b1001 p
b1101 i
0k
0\
b101000 ^
b1010 s
b1010 r
1[
#435000
0[
#440000
b1010 r
b1010 s
b101001 ^
1[
#445000
0[
#450000
b1001 p
b110111001000 g
b11011100100 m
b11011100100 l
b11111111111111111111111111010110 o
b11111111111111111111111111010110 n
1k
b101010 X
b101010 e
b101010 V
b101010 c
1\
b101010 ^
b1010 s
b1010 r
1[
#455000
0[
#460000
b1001 p
b1110 i
0k
b1010 r
b1010 s
0\
b101011 ^
1[
#465000
0[
#470000
b101100 ^
b1010 s
b1010 r
1[
#475000
0[
#480000
b1001 p
b111111010010 g
b11111101001 m
b11111101001 l
b11111111111111111111111111010011 o
b11111111111111111111111111010011 n
1k
b1010 r
b1010 s
b101101 X
b101101 e
b101101 V
b101101 c
1\
b101101 ^
1[
#485000
0[
#490000
b1001 p
b1111 i
0k
0\
b101110 ^
b1010 s
b1010 r
1[
#495000
0[
#500000
b1010 r
b1010 s
b101111 ^
1[
#505000
0[
#510000
b1001 p
b1001000000000 g
b100100000000 m
b100100000000 l
b11111111111111111111111111010000 o
b11111111111111111111111111010000 n
1k
b110000 X
b110000 e
b110000 V
b110000 c
1\
b110000 ^
b1010 s
b1010 r
1[
#515000
0[
#520000
b1001 p
b10000 i
0k
b1010 r
b1010 s
0\
b110001 ^
1[
#525000
0[
#530000
b110010 ^
b1010 s
b1010 r
1[
#535000
0[
#540000
b1001 p
b1010001010010 g
b101000101001 m
b101000101001 l
b11111111111111111111111111001101 o
b11111111111111111111111111001101 n
1k
b1010 r
b1010 s
b110011 X
b110011 e
b110011 V
b110011 c
1\
b110011 ^
1[
#545000
0[
#550000
b1001 p
b10001 i
0k
0\
b110100 ^
b1010 s
b1010 r
1[
#555000
0[
#560000
b1010 r
b1010 s
b110101 ^
1[
#565000
0[
#570000
b1001 p
b1011011001000 g
b101101100100 m
b101101100100 l
b11111111111111111111111111001010 o
b11111111111111111111111111001010 n
1k
b110110 X
b110110 e
b110110 V
b110110 c
1\
b110110 ^
b1010 s
b1010 r
1[
#575000
0[
#580000
b1001 p
b10010 i
0k
b1010 r
b1010 s
0\
b110111 ^
1[
#585000
0[
#590000
b111000 ^
b1010 s
b1010 r
1[
#595000
0[
#600000
b1001 p
b1100101100010 g
b110010110001 m
b110010110001 l
b11111111111111111111111111000111 o
b11111111111111111111111111000111 n
1k
b1010 r
b1010 s
b111001 X
b111001 e
b111001 V
b111001 c
1\
b111001 ^
1[
#605000
0[
#610000
b1001 p
b10011 i
0k
0\
b111010 ^
b1010 s
b1010 r
1[
#615000
0[
#620000
b1010 r
b1010 s
b111011 ^
1[
#625000
0[
#630000
b1001 p
b1110000100000 g
b111000010000 m
b111000010000 l
b11111111111111111111111111000100 o
b11111111111111111111111111000100 n
1k
b111100 X
b111100 e
b111100 V
b111100 c
1\
b111100 ^
b1010 s
b1010 r
1[
#635000
0[
#640000
b1001 p
b10100 i
0k
b1010 r
b1010 s
0\
b111101 ^
1[
#645000
0[
#650000
b111110 ^
b1010 s
b1010 r
1[
#655000
0[
#660000
b1001 p
b1111100000010 g
b111110000001 m
b111110000001 l
b11111111111111111111111111000001 o
b11111111111111111111111111000001 n
1k
b1010 r
b1010 s
b111111 X
b111111 e
b111111 V
b111111 c
1\
b111111 ^
1[
#665000
0[
#670000
b1001 p
b10101 i
0k
0\
b1000000 ^
b1010 s
b1010 r
1[
#675000
0[
#680000
b1010 r
b1010 s
b1000001 ^
1[
#685000
0[
#690000
b1001 p
b10001000001000 g
b1000100000100 m
b1000100000100 l
b11111111111111111111111110111110 o
b11111111111111111111111110111110 n
1k
b1000010 X
b1000010 e
b1000010 V
b1000010 c
1\
b1000010 ^
b1010 s
b1010 r
1[
#695000
0[
#700000
b1001 p
b10110 i
0k
b1010 r
b1010 s
0\
b1000011 ^
1[
#705000
0[
#710000
b1000100 ^
b1010 s
b1010 r
1[
#715000
0[
#720000
b1001 p
b10010100110010 g
b1001010011001 m
b1001010011001 l
b11111111111111111111111110111011 o
b11111111111111111111111110111011 n
1k
b1010 r
b1010 s
b1000101 X
b1000101 e
b1000101 V
b1000101 c
1\
b1000101 ^
1[
#725000
0[
#730000
b1001 p
b10111 i
0k
0\
b1000110 ^
b1010 s
b1010 r
1[
#735000
0[
#740000
b1010 r
b1010 s
b1000111 ^
1[
#745000
0[
#750000
b1001 p
b10100010000000 g
b1010001000000 m
b1010001000000 l
b11111111111111111111111110111000 o
b11111111111111111111111110111000 n
1k
b1001000 X
b1001000 e
b1001000 V
b1001000 c
1\
b1001000 ^
b1010 s
b1010 r
1[
#755000
0[
#760000
b1001 p
b11000 i
0k
b1010 r
b1010 s
0\
b1001001 ^
1[
#765000
0[
#770000
b1001010 ^
b1010 s
b1010 r
1[
#775000
0[
#780000
b1001 p
b10101111110010 g
b1010111111001 m
b1010111111001 l
b11111111111111111111111110110101 o
b11111111111111111111111110110101 n
1k
b1010 r
b1010 s
b1001011 X
b1001011 e
b1001011 V
b1001011 c
1\
b1001011 ^
1[
#785000
0[
#790000
b1001 p
b11001 i
0k
0\
b1001100 ^
b1010 s
b1010 r
1[
#795000
0[
#800000
b1010 r
b1010 s
b1001101 ^
1[
#805000
0[
#810000
b1001 p
b10111110001000 g
b1011111000100 m
b1011111000100 l
b11111111111111111111111110110010 o
b11111111111111111111111110110010 n
1k
b1001110 X
b1001110 e
b1001110 V
b1001110 c
1\
b1001110 ^
b1010 s
b1010 r
1[
#815000
0[
#820000
b1001 p
b11010 i
0k
b1010 r
b1010 s
0\
b1001111 ^
1[
#825000
0[
#830000
b1010000 ^
b1010 s
b1010 r
1[
#835000
0[
#840000
b1001 p
b11001101000010 g
b1100110100001 m
b1100110100001 l
b11111111111111111111111110101111 o
b11111111111111111111111110101111 n
1k
b1010 r
b1010 s
b1010001 X
b1010001 e
b1010001 V
b1010001 c
1\
b1010001 ^
1[
#845000
0[
#850000
b1001 p
b11011 i
0k
0\
b1010010 ^
b1010 s
b1010 r
1[
#855000
0[
#860000
b1010 r
b1010 s
b1010011 ^
1[
#865000
0[
#870000
b1001 p
b11011100100000 g
b1101110010000 m
b1101110010000 l
b11111111111111111111111110101100 o
b11111111111111111111111110101100 n
1k
b1010100 X
b1010100 e
b1010100 V
b1010100 c
1\
b1010100 ^
b1010 s
b1010 r
1[
#875000
0[
#880000
b1001 p
b11100 i
0k
b1010 r
b1010 s
0\
b1010101 ^
1[
#885000
0[
#890000
b1010110 ^
b1010 s
b1010 r
1[
#895000
0[
#900000
b1001 p
b11101100100010 g
b1110110010001 m
b1110110010001 l
b11111111111111111111111110101001 o
b11111111111111111111111110101001 n
1k
b1010 r
b1010 s
b1010111 X
b1010111 e
b1010111 V
b1010111 c
1\
b1010111 ^
1[
#905000
0[
#910000
b1001 p
b11101 i
0k
0\
b1011000 ^
b1010 s
b1010 r
1[
#915000
0[
#920000
b1010 r
b1010 s
b1011001 ^
1[
#925000
0[
#930000
b1001 p
b11111101001000 g
b1111110100100 m
b1111110100100 l
b11111111111111111111111110100110 o
b11111111111111111111111110100110 n
1k
b1011010 X
b1011010 e
b1011010 V
b1011010 c
1\
b1011010 ^
b1010 s
b1010 r
1[
#935000
0[
#940000
b1001 p
b11110 i
0k
b1010 r
b1010 s
0\
b1011011 ^
1[
#945000
0[
#950000
b1011100 ^
b1010 s
b1010 r
1[
#955000
0[
#960000
b1001 p
b100001110010010 g
b10000111001001 m
b10000111001001 l
b11111111111111111111111110100011 o
b11111111111111111111111110100011 n
1k
b1010 r
b1010 s
b1011101 X
b1011101 e
b1011101 V
b1011101 c
1\
b1011101 ^
1[
#965000
0[
#970000
b1001 p
b11111 i
0k
0\
b1011110 ^
b1010 s
b1010 r
1[
#975000
0[
#980000
b1010 r
b1010 s
b1011111 ^
1[
#985000
0[
#990000
b1001 p
b100100000000000 g
b10010000000000 m
b10010000000000 l
b11111111111111111111111110100000 o
b11111111111111111111111110100000 n
1k
b1100000 X
b1100000 e
b1100000 V
b1100000 c
1\
b1100000 ^
b1010 s
b1010 r
1[
#995000
0[
#1000000
b1001 p
b100000 i
0k
b1010 r
b1010 s
0\
b1100001 ^
1[
#1005000
0[
#1010000
b1100010 ^
b1010 s
b1010 r
1[
#1015000
0[
#1020000
b1001 p
b100110010010010 g
b10011001001001 m
b10011001001001 l
b11111111111111111111111110011101 o
b11111111111111111111111110011101 n
1k
b1010 r
b1010 s
b1100011 X
b1100011 e
b1100011 V
b1100011 c
1\
b1100011 ^
1[
#1025000
0[
#1030000
b1001 p
b100001 i
1h
b0 `
1Y
b1100100 ^
b1010 s
b1010 r
1[
#1035000
0[
#1040000
b1 T
b1 a
b1 j
b1010 q
b1010 r
b1010 s
b1 Z
b1 f
b1 `
1[
#1045000
0[
#1050000
b10 T
b10 a
b10 j
b1010 q
b1010 s
b1010 r
b10 Z
b10 f
b10 `
1[
#1055000
0[
#1060000
b11 T
b11 a
b11 j
b1010 q
b1010 r
b1010 s
b11 Z
b11 f
b11 `
1[
#1065000
0[
#1070000
b100 T
b100 a
b100 j
b1010 q
b1010 s
b1010 r
b100 Z
b100 f
b100 `
1[
#1075000
0[
#1080000
b101 T
b101 a
b101 j
b1010 q
b1010 r
b1010 s
b101 Z
b101 f
b101 `
1[
#1085000
0[
#1090000
b110 T
b110 a
b110 j
b1010 q
b1010 s
b1010 r
b110 Z
b110 f
b110 `
1[
#1095000
0[
#1100000
b111 T
b111 a
b111 j
b1010 q
b1010 r
b1010 s
b111 Z
b111 f
b111 `
1[
#1105000
0[
#1110000
b1000 T
b1000 a
b1000 j
b1010 q
b1010 s
b1010 r
b1000 Z
b1000 f
b1000 `
1[
#1115000
0[
#1120000
b1001 T
b1001 a
b1001 j
b1010 q
b1010 r
b1010 s
b1001 Z
b1001 f
b1001 `
1[
#1125000
0[
#1130000
0h
b1010 s
b1010 r
0Y
b1010 `
1[
#1131000
b1001 p
b0 i
1]
#1135000
0[
#1140000
b0 T
b0 a
b0 j
b1010 q
b1001 p
b0 )"
b0 '"
b0 %"
b0 #"
b0 !"
b0 }
b0 {
b0 y
b0 w
b0 u
b11111111111111111111111111111111 ("
b11111111111111111111111111111111 &"
b11111111111111111111111111111111 $"
b11111111111111111111111111111111 ""
b11111111111111111111111111111111 ~
b11111111111111111111111111111111 |
b11111111111111111111111111111111 z
b11111111111111111111111111111111 x
b11111111111111111111111111111111 v
b11111111111111111111111111111111 t
b1010 r
b1010 s
1[
#1141000
0k
0\
b1 ^
b1 _
0]
#1145000
0[
#1150000
b1010 s
b1010 r
b10 ^
1[
#1155000
0[
#1160000
b1001 p
b10010 g
b1001 m
b1001 l
b11111111111111111111111111111101 o
b11111111111111111111111111111101 n
1k
b11 X
b11 e
b11 V
b11 c
1\
b11 ^
b1010 r
b1010 s
1[
#1165000
0[
#1170000
b1001 p
b1 i
b10010 t
b11111111111111111111111111111111 ("
b11111111111111111111111111111111 &"
b11111111111111111111111111111111 $"
b11111111111111111111111111111111 ""
b11111111111111111111111111111111 ~
b11111111111111111111111111111111 |
b11111111111111111111111111111111 z
b11111111111111111111111111111111 x
b11111111111111111111111111111111 v
b0 u
b0 )"
b0 '"
b0 %"
b0 #"
b0 !"
b0 }
b0 {
b0 y
b0 w
0k
b1010 s
b1010 r
0\
b100 ^
1[
#1175000
0[
#1180000
b101 ^
b1010 r
b1010 s
1[
#1185000
0[
#1190000
b1001 p
b1001000 g
b100100 m
b100100 l
b11111111111111111111111111111010 o
b11111111111111111111111111111010 n
1k
b1010 s
b1010 r
b110 X
b110 e
b110 V
b110 c
1\
b110 ^
1[
#1195000
0[
#1200000
b1010 q
b1001 p
b10 i
b0 )"
b0 '"
b0 %"
b0 #"
b0 !"
b0 }
b0 {
b0 y
b1 w
b11111111111111111111111111111111 ("
b11111111111111111111111111111111 &"
b11111111111111111111111111111111 $"
b11111111111111111111111111111111 ""
b11111111111111111111111111111111 ~
b11111111111111111111111111111111 |
b11111111111111111111111111111111 z
b11111111111111111111111111111111 x
b1001000 v
0k
0\
b111 ^
b1010 r
b1010 s
1[
#1205000
0[
#1210000
b1010 s
b1010 r
b1000 ^
1[
#1215000
0[
#1220000
b1001 p
b10100010 g
b1010001 m
b1010001 l
b11111111111111111111111111110111 o
b11111111111111111111111111110111 n
1k
b1001 X
b1001 e
b1001 V
b1001 c
1\
b1001 ^
b1010 r
b1010 s
1[
#1225000
0[
#1230000
b1010 q
b1001 p
b11 i
b11111111111111111111111111111111 ("
b11111111111111111111111111111111 &"
b11111111111111111111111111111111 $"
b11111111111111111111111111111111 ""
b11111111111111111111111111111111 ~
b11111111111111111111111111111111 |
b11111111111111111111111111111111 z
b10100010 x
b0 )"
b0 '"
b0 %"
b0 #"
b0 !"
b0 }
b0 {
b10 y
0k
b1010 s
b1010 r
0\
b1010 ^
1[
#1235000
0[
#1240000
b1011 ^
b1010 r
b1010 s
1[
#1245000
0[
#1250000
b1001 p
b100100000 g
b10010000 m
b10010000 l
b11111111111111111111111111110100 o
b11111111111111111111111111110100 n
1k
b1010 s
b1010 r
b1100 X
b1100 e
b1100 V
b1100 c
1\
b1100 ^
1[
#1255000
0[
#1260000
b1010 q
b1001 p
b100 i
b0 )"
b0 '"
b0 %"
b0 #"
b0 !"
b0 }
b11 {
b11111111111111111111111111111111 ("
b11111111111111111111111111111111 &"
b11111111111111111111111111111111 $"
b11111111111111111111111111111111 ""
b11111111111111111111111111111111 ~
b11111111111111111111111111111111 |
b100100000 z
0k
0\
b1101 ^
b1010 r
b1010 s
1[
#1265000
0[
#1270000
b1010 s
b1010 r
b1110 ^
1[
#1275000
0[
#1280000
b1001 p
b111000010 g
b11100001 m
b11100001 l
b11111111111111111111111111110001 o
b11111111111111111111111111110001 n
1k
b1111 X
b1111 e
b1111 V
b1111 c
1\
b1111 ^
b1010 r
b1010 s
1[
#1285000
0[
#1290000
b1010 q
b1001 p
b101 i
b11111111111111111111111111111111 ("
b11111111111111111111111111111111 &"
b11111111111111111111111111111111 $"
b11111111111111111111111111111111 ""
b11111111111111111111111111111111 ~
b111000010 |
b0 )"
b0 '"
b0 %"
b0 #"
b0 !"
b100 }
0k
b1010 s
b1010 r
0\
b10000 ^
1[
