hardware/simulation/icarus/knn.vcd
$date
	Sat Nov 28 18:23:53 2020
$end
$version
	Icarus Verilog
$end
$timescale
	1ps
$end
$scope module iob_knn $end
$var wire 3 ! address [2:0] $end
$var wire 1 " clk $end
$var wire 32 # rdata [31:0] $end
$var wire 1 $ ready $end
$var wire 1 % rst $end
$var wire 1 & valid $end
$var wire 32 ' wdata [31:0] $end
$var wire 4 ( wstrb [3:0] $end
$var wire 32 ) DATA_OUT [31:0] $end
$var reg 32 * DATA_1 [31:0] $end
$var reg 32 + DATA_2 [31:0] $end
$var reg 16 , DATA_X1 [15:0] $end
$var reg 16 - DATA_X2 [15:0] $end
$var reg 16 . DATA_Y1 [15:0] $end
$var reg 16 / DATA_Y2 [15:0] $end
$var reg 1 0 KNN_ENABLE $end
$var reg 1 1 KNN_RESET $end
$var reg 32 2 rdata_int [31:0] $end
$var reg 1 3 ready_int $end
$var reg 1 4 rst_int $end
$var reg 1 5 write $end
$scope module d0 $end
$var wire 32 6 DATA_OUT [31:0] $end
$var wire 16 7 DATA_X1 [15:0] $end
$var wire 16 8 DATA_X2 [15:0] $end
$var wire 16 9 DATA_Y1 [15:0] $end
$var wire 16 : DATA_Y2 [15:0] $end
$var reg 32 ; result [31:0] $end
$var reg 32 < sqr1 [31:0] $end
$var reg 32 = sqr2 [31:0] $end
$var reg 32 > sub1 [31:0] $end
$var reg 32 ? sub2 [31:0] $end
$upscope $end
$upscope $end
$scope module knn_core $end
$var wire 32 @ KNN_DATA_IN [31:0] $end
$var wire 32 A KNN_DATA_OUT [31:0] $end
$var wire 1 B KNN_ENABLE $end
$var wire 1 C clk $end
$var wire 1 D rst $end
$upscope $end
$scope module knn_tb $end
$var wire 32 E DATA3_OUT [31:0] $end
$var wire 32 F DATA2_OUT [31:0] $end
$var wire 32 G DATA1_OUT [31:0] $end
$var wire 32 H DATA0_OUT [31:0] $end
$var reg 32 I DATA_IN [31:0] $end
$var reg 1 J clk $end
$var reg 1 K ready $end
$var reg 1 L rst $end
$var integer 32 M i [31:0] $end
$scope module sorter0 $end
$var wire 32 N DATA0_OUT [31:0] $end
$var wire 32 O DATA1_OUT [31:0] $end
$var wire 32 P DATA2_OUT [31:0] $end
$var wire 32 Q DATA3_OUT [31:0] $end
$var wire 32 R DATA_IN [31:0] $end
$var wire 1 J clk $end
$var wire 1 L rst $end
$var reg 32 S DATA0_OUT_INT [31:0] $end
$var reg 32 T DATA1_IN_INT [31:0] $end
$var reg 32 U DATA1_OUT_INT [31:0] $end
$var reg 32 V DATA2_IN_INT [31:0] $end
$var reg 32 W DATA2_OUT_INT [31:0] $end
$var reg 32 X DATA3_IN_INT [31:0] $end
$var reg 32 Y DATA3_OUT_INT [31:0] $end
$var reg 1 Z c0 $end
$var reg 1 [ c1 $end
$var reg 1 \ c2 $end
$var reg 1 ] c3 $end
$upscope $end
$upscope $end
$enddefinitions $end
#0
$dumpvars
x]
x\
x[
xZ
bx Y
bx X
bx W
bx V
bx U
bx T
bx S
bx R
bx Q
bx P
bx O
bx N
bx M
0L
0K
1J
bx I
bx H
bx G
bx F
bx E
zD
zC
zB
bz A
bz @
bx ?
bx >
bx =
bx <
bx ;
bx :
bx 9
bx 8
bx 7
bx 6
x5
x4
x3
b0 2
x1
x0
bx /
bx .
bx -
bx ,
bx +
bx *
bx )
bz (
bz '
z&
z%
x$
b0 #
z"
bz !
$end
#5000
0J
#7000
1L
#10000
0]
0\
0[
0Z
b11111111111111111111111111111111 H
b11111111111111111111111111111111 N
b11111111111111111111111111111111 S
b11111111111111111111111111111111 G
b11111111111111111111111111111111 O
b11111111111111111111111111111111 U
b11111111111111111111111111111111 F
b11111111111111111111111111111111 P
b11111111111111111111111111111111 W
b11111111111111111111111111111111 E
b11111111111111111111111111111111 Q
b11111111111111111111111111111111 Y
1J
#15000
0J
#17000
b1 M
0L
#20000
1J
#21000
b10 M
#25000
0J
#30000
1J
#31000
b11 M
#35000
0J
#40000
1J
#41000
b100 M
#45000
0J
#50000
1J
#51000
1]
b11111111111111111111111111111111 X
1\
b11111111111111111111111111111111 V
1[
b11111111111111111111111111111111 T
1Z
b110101000100 I
b110101000100 R
1K
b101 M
#55000
0J
#60000
b110101000100 T
0Z
b110101000100 H
b110101000100 N
b110101000100 S
1J
#61000
0K
b110 M
#65000
0J
#70000
b110101000100 V
0[
b110101000100 G
b110101000100 O
b110101000100 U
1J
#71000
b111 M
#75000
0J
#80000
b110101000100 X
0\
b110101000100 F
b110101000100 P
b110101000100 W
1J
#81000
b1000 M
#85000
0J
#90000
0]
b110101000100 E
b110101000100 Q
b110101000100 Y
1J
#91000
b1001 M
#95000
0J
#100000
1J
#101000
b1000101100001 X
b1000101100001 V
b1000101100001 T
b1000101100001 I
b1000101100001 R
1K
b1010 M
#105000
0J
#110000
1J
#111000
0K
b1011 M
#115000
0J
#120000
1J
#121000
b1100 M
#125000
0J
#130000
1J
#131000
b1101 M
#135000
0J
#140000
1J
#141000
b1110 M
#145000
0J
#150000
1J
#151000
b1000100111001 X
b1000100111001 V
b1000100111001 T
b1000100111001 I
b1000100111001 R
1K
b1111 M
#155000
0J
#160000
1J
#161000
0K
b10000 M
#165000
0J
#170000
1J
#171000
b10001 M
#175000
0J
#180000
1J
#181000
b10010 M
#185000
0J
#190000
1J
#191000
b10011 M
#195000
0J
#200000
1J
#201000
b1000011110011 X
b1000011110011 V
b1000011110011 T
b1000011110011 I
b1000011110011 R
1K
b10100 M
#205000
0J
#210000
1J
#211000
0K
b10101 M
#215000
0J
#220000
1J
#221000
b10110 M
#225000
0J
#230000
1J
#231000
b10111 M
#235000
0J
#240000
1J
#241000
b11000 M
#245000
0J
#250000
1J
#251000
1]
b110101000100 X
1\
b110101000100 V
1[
b110101000100 T
1Z
b101000101101 I
b101000101101 R
1K
b11001 M
#255000
0J
#260000
b101000101101 T
0Z
b101000101101 H
b101000101101 N
b101000101101 S
1J
#261000
0K
b11010 M
#265000
0J
#270000
b101000101101 V
0[
b101000101101 G
b101000101101 O
b101000101101 U
1J
#271000
b11011 M
#275000
0J
#280000
b101000101101 X
0\
b101000101101 F
b101000101101 P
b101000101101 W
1J
#281000
b11100 M
#285000
0J
#290000
0]
b101000101101 E
b101000101101 Q
b101000101101 Y
1J
#291000
b11101 M
#295000
0J
#300000
1J
#301000
1K
b11110 M
#305000
0J
#310000
1J
#311000
0K
b11111 M
#315000
0J
#320000
1J
#321000
b100000 M
#325000
0J
#330000
1J
#331000
b100001 M
#335000
0J
#340000
1J
#341000
b100010 M
#345000
0J
#350000
1J
#351000
b10000111100101 X
b10000111100101 V
b10000111100101 T
b10000111100101 I
b10000111100101 R
1K
b100011 M
#355000
0J
#360000
1J
#361000
0K
b100100 M
#365000
0J
#370000
1J
#371000
b100101 M
#375000
0J
#380000
1J
#381000
b100110 M
#385000
0J
#390000
1J
#391000
b100111 M
#395000
0J
#400000
1J
#401000
1]
b101000101101 X
1\
b101000101101 V
1[
b101000101101 T
1Z
b110110010 I
b110110010 R
1K
b101000 M
#405000
0J
#410000
b110110010 T
0Z
b110110010 H
b110110010 N
b110110010 S
1J
#411000
0K
b101001 M
#415000
0J
#420000
b110110010 V
0[
b110110010 G
b110110010 O
b110110010 U
1J
#421000
b101010 M
#425000
0J
#430000
b110110010 X
0\
b110110010 F
b110110010 P
b110110010 W
1J
#431000
b101011 M
#435000
0J
#440000
0]
b110110010 E
b110110010 Q
b110110010 Y
1J
#441000
b101100 M
#445000
0J
#450000
1J
#451000
b1101101100001 X
b1101101100001 V
b1101101100001 T
b1101101100001 I
b1101101100001 R
1K
b101101 M
#455000
0J
#460000
1J
#461000
0K
b101110 M
#465000
0J
#470000
1J
#471000
b101111 M
#475000
0J
#480000
1J
#481000
b110000 M
#485000
0J
#490000
1J
#491000
b110001 M
#495000
0J
#500000
1J
#501000
b10010111001101 X
b10010111001101 V
b10010111001101 T
b10010111001101 I
b10010111001101 R
1K
b110010 M
#505000
0J
#510000
1J
#511000
0K
b110011 M
#515000
0J
#520000
1J
#521000
b110100 M
#525000
0J
#530000
1J
#531000
b110101 M
#535000
0J
#540000
1J
#541000
b110110 M
#545000
0J
#550000
1J
#551000
b1001101100110 X
b1001101100110 V
b1001101100110 T
b1001101100110 I
b1001101100110 R
1K
b110111 M
#555000
0J
#560000
1J
#561000
0K
b111000 M
#565000
0J
#570000
1J
#571000
b111001 M
#575000
0J
#580000
1J
#581000
b111010 M
#585000
0J
#590000
1J
#591000
b111011 M
#595000
0J
#600000
1J
#601000
b110010101101 X
b110010101101 V
b110010101101 T
b110010101101 I
b110010101101 R
1K
b111100 M
#605000
0J
#610000
1J
#611000
0K
b111101 M
#615000
0J
#620000
1J
#621000
b111110 M
#625000
0J
#630000
1J
#631000
b111111 M
#635000
0J
#640000
1J
#641000
b1000000 M
#645000
0J
#650000
1J
#651000
b10011111101 X
b10011111101 V
b10011111101 T
b10011111101 I
b10011111101 R
1K
b1000001 M
#655000
0J
#660000
1J
#661000
0K
b1000010 M
#665000
0J
#670000
1J
#671000
b1000011 M
#675000
0J
#680000
1J
#681000
b1000100 M
#685000
0J
#690000
1J
#691000
b1000101 M
#695000
0J
#700000
1J
#701000
b10011101100 X
b10011101100 V
b10011101100 T
b10011101100 I
b10011101100 R
1K
b1000110 M
#705000
0J
#710000
1J
#711000
0K
b1000111 M
#715000
0J
#720000
1J
#721000
b1001000 M
#725000
0J
#730000
1J
#731000
b1001001 M
#735000
0J
#740000
1J
#741000
b1001010 M
#745000
0J
#750000
1J
#751000
b10001011101001 X
b10001011101001 V
b10001011101001 T
b10001011101001 I
b10001011101001 R
1K
b1001011 M
#755000
0J
#760000
1J
#761000
0K
b1001100 M
#765000
0J
#770000
1J
#771000
b1001101 M
#775000
0J
#780000
1J
#781000
b1001110 M
#785000
0J
#790000
1J
#791000
b1001111 M
#795000
0J
#800000
1J
#801000
b10000001010110 X
b10000001010110 V
b10000001010110 T
b10000001010110 I
b10000001010110 R
1K
b1010000 M
#805000
0J
#810000
1J
#811000
0K
b1010001 M
#815000
0J
#820000
1J
#821000
b1010010 M
#825000
0J
#830000
1J
#831000
b1010011 M
#835000
0J
#840000
1J
#841000
b1010100 M
#845000
0J
#850000
1J
#851000
b10000101100101 X
b10000101100101 V
b10000101100101 T
b10000101100101 I
b10000101100101 R
1K
b1010101 M
#855000
0J
#860000
1J
#861000
0K
b1010110 M
#865000
0J
#870000
1J
#871000
b1010111 M
#875000
0J
#880000
1J
#881000
b1011000 M
#885000
0J
#890000
1J
#891000
b1011001 M
#895000
0J
#900000
1J
#901000
b100110101010 X
b100110101010 V
b100110101010 T
b100110101010 I
b100110101010 R
1K
b1011010 M
#905000
0J
#910000
1J
#911000
0K
b1011011 M
#915000
0J
#920000
1J
#921000
b1011100 M
#925000
0J
#930000
1J
#931000
b1011101 M
#935000
0J
#940000
1J
#941000
b1011110 M
#945000
0J
#950000
1J
#951000
b10000101010101 X
b10000101010101 V
b10000101010101 T
b10000101010101 I
b10000101010101 R
1K
b1011111 M
#955000
0J
#960000
1J
#961000
0K
b1100000 M
#965000
0J
#970000
1J
#971000
b1100001 M
#975000
0J
#980000
1J
#981000
b1100010 M
#985000
0J
#990000
1J
#991000
b1100011 M
#995000
0J
#1000000
1J
#1001000
b1100100 M
