hardware/simulation/icarus/knn.vcd
$date
	Sun Dec  6 16:30:53 2020
$end
$version
	Icarus Verilog
$end
$timescale
	1ps
$end
$scope module dist_calc $end
$var wire 33 ! DATA_OUT [32:0] $end
$var wire 16 " DATA_X1 [15:0] $end
$var wire 16 # DATA_X2 [15:0] $end
$var wire 16 $ DATA_Y1 [15:0] $end
$var wire 16 % DATA_Y2 [15:0] $end
$var reg 33 & result [32:0] $end
$var reg 32 ' sqr1 [31:0] $end
$var reg 32 ( sqr2 [31:0] $end
$var reg 32 ) sub1 [31:0] $end
$var reg 32 * sub2 [31:0] $end
$upscope $end
$scope module iob_knn $end
$var wire 3 + address [2:0] $end
$var wire 1 , clk $end
$var wire 32 - rdata [31:0] $end
$var wire 1 . ready $end
$var wire 1 / rst $end
$var wire 1 0 valid $end
$var wire 32 1 wdata [31:0] $end
$var wire 4 2 wstrb [3:0] $end
$var wire 8 3 DATA_OUT [7:0] $end
$var reg 16 4 DATA_X1 [15:0] $end
$var reg 16 5 DATA_X2 [15:0] $end
$var reg 16 6 DATA_Y1 [15:0] $end
$var reg 16 7 DATA_Y2 [15:0] $end
$var reg 1 8 DONE $end
$var reg 1 9 KNN_RESET $end
$var reg 4 : SEL [3:0] $end
$var reg 32 ; rdata_int [31:0] $end
$var reg 1 < ready_int $end
$var reg 1 = rst_int $end
$var reg 1 > write $end
$scope module sorter0 $end
$var wire 8 ? DATA_OUT [7:0] $end
$var wire 16 @ DATA_X1 [15:0] $end
$var wire 16 A DATA_X2 [15:0] $end
$var wire 16 B DATA_Y1 [15:0] $end
$var wire 16 C DATA_Y2 [15:0] $end
$var wire 1 8 DONE $end
$var wire 4 D SEL [3:0] $end
$var wire 1 , clk $end
$var wire 1 = rst $end
$var wire 1 0 valid $end
$var reg 32 E DIST [31:0] $end
$var reg 8 F idx_cnt [7:0] $end
$var reg 8 G idx_out [7:0] $end
$var reg 1 H ready $end
$var reg 32 I sqr1 [31:0] $end
$var reg 32 J sqr2 [31:0] $end
$var reg 32 K sub1 [31:0] $end
$var reg 32 L sub2 [31:0] $end
$var reg 2 M valid_cnt [1:0] $end
$var integer 32 N i [31:0] $end
$var integer 32 O j [31:0] $end
$var integer 32 P m [31:0] $end
$var integer 32 Q n [31:0] $end
$upscope $end
$upscope $end
$scope module knn_tb $end
$var wire 8 R DATA_OUT [7:0] $end
$var reg 16 S DATA_X1 [15:0] $end
$var reg 16 T DATA_X2 [15:0] $end
$var reg 16 U DATA_Y1 [15:0] $end
$var reg 16 V DATA_Y2 [15:0] $end
$var reg 1 W DONE $end
$var reg 4 X SEL [3:0] $end
$var reg 1 Y clk $end
$var reg 1 Z ready $end
$var reg 1 [ rst $end
$var reg 1 \ y $end
$var integer 32 ] i [31:0] $end
$var integer 32 ^ j [31:0] $end
$var integer 32 _ k [31:0] $end
$scope module sorter0 $end
$var wire 8 ` DATA_OUT [7:0] $end
$var wire 16 a DATA_X1 [15:0] $end
$var wire 16 b DATA_X2 [15:0] $end
$var wire 16 c DATA_Y1 [15:0] $end
$var wire 16 d DATA_Y2 [15:0] $end
$var wire 1 W DONE $end
$var wire 4 e SEL [3:0] $end
$var wire 1 Y clk $end
$var wire 1 [ rst $end
$var wire 1 Z valid $end
$var reg 32 f DIST [31:0] $end
$var reg 8 g idx_cnt [7:0] $end
$var reg 8 h idx_out [7:0] $end
$var reg 1 i ready $end
$var reg 32 j sqr1 [31:0] $end
$var reg 32 k sqr2 [31:0] $end
$var reg 32 l sub1 [31:0] $end
$var reg 32 m sub2 [31:0] $end
$var reg 2 n valid_cnt [1:0] $end
$var integer 32 o i [31:0] $end
$var integer 32 p j [31:0] $end
$var integer 32 q m [31:0] $end
$var integer 32 r n [31:0] $end
$upscope $end
$upscope $end
$enddefinitions $end
#0
$dumpvars
bx r
bx q
b1010 p
b1001 o
bx n
bx m
bx l
bx k
bx j
xi
bx h
bx g
bx f
b0 e
bx d
b0 c
bx b
b0 a
bx `
bx _
bx ^
bx ]
x\
0[
0Z
1Y
b0 X
0W
bx V
b0 U
bx T
b0 S
bx R
bx Q
bx P
bx O
bx N
bx M
bx L
bx K
bx J
bx I
xH
bx G
bx F
bx E
bx D
bx C
bx B
bx A
bx @
bx ?
x>
x=
x<
b0 ;
bx :
x9
x8
bx 7
bx 6
bx 5
bx 4
bx 3
bz 2
bz 1
z0
z/
x.
b0 -
z,
bz +
bx *
bx )
bx (
bx '
bx &
bz %
bz $
bz #
bz "
bx !
$end
#5000
0Y
#7000
b1001 o
b0 n
0i
b0 g
1[
#10000
b0 R
b0 `
b0 h
b1010 p
b1001 o
b1010 r
b1010 q
1Y
#15000
0Y
#17000
b1 ]
b0 ^
0[
#20000
b1010 q
b1010 r
b10 ]
1Y
#25000
0Y
#30000
b1 n
b1001 o
b1001 k
b11111111111111111111111111111101 m
0\
b11 V
b11 d
1Z
b11 ]
b1010 r
b1010 q
1Y
#35000
0Y
#40000
b1010 q
b1010 r
0Z
b100 ]
1Y
#45000
0Y
#50000
b101 ]
b1010 r
b1010 q
1Y
#55000
0Y
#60000
b10 n
b1001 o
b101101 f
b100100 j
b11111111111111111111111111111010 l
b1010 q
b1010 r
1\
b110 T
b110 b
1Z
b110 ]
1Y
#65000
0Y
#70000
1i
0Z
b111 ]
b1010 r
b1010 q
1Y
#75000
0Y
#80000
b1001 o
b0 n
0i
b1 g
b1010 q
b1010 r
b1000 ]
1Y
#85000
0Y
#90000
b1 n
b1001 o
b1110101 f
b1010001 k
b11111111111111111111111111110111 m
0\
b1001 V
b1001 d
1Z
b1001 ]
b1010 r
b1010 q
1Y
#95000
0Y
#100000
b1010 q
b1010 r
0Z
b1010 ]
1Y
#105000
0Y
#110000
b1011 ]
b1010 r
b1010 q
1Y
#115000
0Y
#120000
b10 n
b1001 o
b11100001 f
b10010000 j
b11111111111111111111111111110100 l
b1010 q
b1010 r
1\
b1100 T
b1100 b
1Z
b1100 ]
1Y
#125000
0Y
#130000
1i
0Z
b1101 ]
b1010 r
b1010 q
1Y
#135000
0Y
#140000
b1010 p
b1001 o
b0 n
0i
b10 g
b1010 q
b1010 r
b1110 ]
1Y
#145000
0Y
#150000
b1 n
b1001 o
b101110001 f
b11100001 k
b11111111111111111111111111110001 m
0\
b1111 V
b1111 d
1Z
b1111 ]
b1010 r
b1010 q
1Y
#155000
0Y
#160000
b1010 q
b1010 r
0Z
b10000 ]
1Y
#165000
0Y
#170000
b10001 ]
b1010 r
b1010 q
1Y
#175000
0Y
#180000
b10 n
b1001 o
b1000100101 f
b101000100 j
b11111111111111111111111111101110 l
b1010 q
b1010 r
1\
b10010 T
b10010 b
1Z
b10010 ]
1Y
#185000
0Y
#190000
1i
0Z
b10011 ]
b1010 r
b1010 q
1Y
#195000
0Y
#200000
b1010 p
b1001 o
b0 n
0i
b11 g
b1010 q
b1010 r
b10100 ]
1Y
#205000
0Y
#210000
b1 n
b1001 o
b1011111101 f
b110111001 k
b11111111111111111111111111101011 m
0\
b10101 V
b10101 d
1Z
b10101 ]
b1010 r
b1010 q
1Y
#215000
0Y
#220000
b1010 q
b1010 r
0Z
b10110 ]
1Y
#225000
0Y
#230000
b10111 ]
b1010 r
b1010 q
1Y
#235000
0Y
#240000
b10 n
b1001 o
b1111111001 f
b1001000000 j
b11111111111111111111111111101000 l
b1010 q
b1010 r
1\
b11000 T
b11000 b
1Z
b11000 ]
1Y
#245000
0Y
#250000
1i
0Z
b11001 ]
b1010 r
b1010 q
1Y
#255000
0Y
#260000
b1010 p
b1001 o
b0 n
0i
b100 g
b1010 q
b1010 r
b11010 ]
1Y
#265000
0Y
#270000
b1 n
b1001 o
b10100011001 f
b1011011001 k
b11111111111111111111111111100101 m
0\
b11011 V
b11011 d
1Z
b11011 ]
b1010 r
b1010 q
1Y
#275000
0Y
#280000
b1010 q
b1010 r
0Z
b11100 ]
1Y
#285000
0Y
#290000
b11101 ]
b1010 r
b1010 q
1Y
#295000
0Y
#300000
b10 n
b1001 o
b11001011101 f
b1110000100 j
b11111111111111111111111111100010 l
b1010 q
b1010 r
1\
b11110 T
b11110 b
1Z
b11110 ]
1Y
#305000
0Y
#310000
1i
0Z
b11111 ]
b1010 r
b1010 q
1Y
#315000
0Y
#320000
b1010 p
b1001 o
b0 n
0i
b101 g
b1010 q
b1010 r
b100000 ]
1Y
#325000
0Y
#330000
b1 n
b1001 o
b11111000101 f
b10001000001 k
b11111111111111111111111111011111 m
0\
b100001 V
b100001 d
1Z
b100001 ]
b1010 r
b1010 q
1Y
#335000
0Y
#340000
b1010 q
b1010 r
0Z
b100010 ]
1Y
#345000
0Y
#350000
b100011 ]
b1010 r
b1010 q
1Y
#355000
0Y
#360000
b10 n
b1001 o
b100101010001 f
b10100010000 j
b11111111111111111111111111011100 l
b1010 q
b1010 r
1\
b100100 T
b100100 b
1Z
b100100 ]
1Y
#365000
0Y
#370000
1i
0Z
b100101 ]
b1010 r
b1010 q
1Y
#375000
0Y
#380000
b1010 p
b1001 o
b0 n
0i
b110 g
b1010 q
b1010 r
b100110 ]
1Y
#385000
0Y
#390000
b1 n
b1001 o
b101100000001 f
b10111110001 k
b11111111111111111111111111011001 m
0\
b100111 V
b100111 d
1Z
b100111 ]
b1010 r
b1010 q
1Y
#395000
0Y
#400000
b1010 q
b1010 r
0Z
b101000 ]
1Y
#405000
0Y
#410000
b101001 ]
b1010 r
b1010 q
1Y
#415000
0Y
#420000
b10 n
b1001 o
b110011010101 f
b11011100100 j
b11111111111111111111111111010110 l
b1010 q
b1010 r
1\
b101010 T
b101010 b
1Z
b101010 ]
1Y
#425000
0Y
#430000
1i
0Z
b101011 ]
b1010 r
b1010 q
1Y
#435000
0Y
#440000
b1010 p
b1001 o
b0 n
0i
b111 g
b1010 q
b1010 r
b101100 ]
1Y
#445000
0Y
#450000
b1 n
b1001 o
b111011001101 f
b11111101001 k
b11111111111111111111111111010011 m
0\
b101101 V
b101101 d
1Z
b101101 ]
b1010 r
b1010 q
1Y
#455000
0Y
#460000
b1010 q
b1010 r
0Z
b101110 ]
1Y
#465000
0Y
#470000
b101111 ]
b1010 r
b1010 q
1Y
#475000
0Y
#480000
b10 n
b1001 o
b1000011101001 f
b100100000000 j
b11111111111111111111111111010000 l
b1010 q
b1010 r
1\
b110000 T
b110000 b
1Z
b110000 ]
1Y
#485000
0Y
#490000
1i
0Z
b110001 ]
b1010 r
b1010 q
1Y
#495000
0Y
#500000
b1010 p
b1001 o
b0 n
0i
b1000 g
b1010 q
b1010 r
b110010 ]
1Y
#505000
0Y
#510000
b1 n
b1001 o
b1001100101001 f
b101000101001 k
b11111111111111111111111111001101 m
0\
b110011 V
b110011 d
1Z
b110011 ]
b1010 r
b1010 q
1Y
#515000
0Y
#520000
b1010 q
b1010 r
0Z
b110100 ]
1Y
#525000
0Y
#530000
b110101 ]
b1010 r
b1010 q
1Y
#535000
0Y
#540000
b10 n
b1001 o
b1010110001101 f
b101101100100 j
b11111111111111111111111111001010 l
b1010 q
b1010 r
1\
b110110 T
b110110 b
1Z
b110110 ]
1Y
#545000
0Y
#550000
1i
0Z
b110111 ]
b1010 r
b1010 q
1Y
#555000
0Y
#560000
b1010 p
b1001 o
b0 n
0i
b1001 g
b1010 q
b1010 r
b111000 ]
1Y
#565000
0Y
#570000
b1 n
b1001 o
b1100000010101 f
b110010110001 k
b11111111111111111111111111000111 m
0\
b111001 V
b111001 d
1Z
b111001 ]
b1010 r
b1010 q
1Y
#575000
0Y
#580000
b1010 q
b1010 r
0Z
b111010 ]
1Y
#585000
0Y
#590000
b111011 ]
b1010 r
b1010 q
1Y
#595000
0Y
#600000
b10 n
b1001 o
b1101011000001 f
b111000010000 j
b11111111111111111111111111000100 l
b1010 q
b1010 r
1\
b111100 T
b111100 b
1Z
b111100 ]
1Y
#605000
0Y
#610000
1i
0Z
b111101 ]
b1010 r
b1010 q
1Y
#615000
0Y
#620000
b1010 p
b1001 o
b0 n
0i
b1010 g
b1010 q
b1010 r
b111110 ]
1Y
#625000
0Y
#630000
b1 n
b1001 o
b1110110010001 f
b111110000001 k
b11111111111111111111111111000001 m
0\
b111111 V
b111111 d
1Z
b111111 ]
b1010 r
b1010 q
1Y
#635000
0Y
#640000
b1010 q
b1010 r
0Z
b1000000 ]
1Y
#645000
0Y
#650000
b1000001 ]
b1010 r
b1010 q
1Y
#655000
0Y
#660000
b10 n
b1001 o
b10000010000101 f
b1000100000100 j
b11111111111111111111111110111110 l
b1010 q
b1010 r
1\
b1000010 T
b1000010 b
1Z
b1000010 ]
1Y
#665000
0Y
#670000
1i
0Z
b1000011 ]
b1010 r
b1010 q
1Y
#675000
0Y
#680000
b1001 o
b0 n
0i
b1011 g
b1010 q
b1010 r
b1000100 ]
1Y
#685000
0Y
#690000
b1 n
b1001 o
b10001110011101 f
b1001010011001 k
b11111111111111111111111110111011 m
0\
b1000101 V
b1000101 d
1Z
b1000101 ]
b1010 r
b1010 q
1Y
#695000
0Y
#700000
b1010 q
b1010 r
0Z
b1000110 ]
1Y
#705000
0Y
#710000
b1000111 ]
b1010 r
b1010 q
1Y
#715000
0Y
#720000
b10 n
b1001 o
b10011011011001 f
b1010001000000 j
b11111111111111111111111110111000 l
b1010 q
b1010 r
1\
b1001000 T
b1001000 b
1Z
b1001000 ]
1Y
#725000
0Y
#730000
1i
0Z
b1001001 ]
b1010 r
b1010 q
1Y
#735000
0Y
#740000
b1001 o
b0 n
0i
b1100 g
b1010 q
b1010 r
b1001010 ]
1Y
#745000
0Y
#750000
b1 n
b1001 o
b10101000111001 f
b1010111111001 k
b11111111111111111111111110110101 m
0\
b1001011 V
b1001011 d
1Z
b1001011 ]
b1010 r
b1010 q
1Y
#755000
0Y
#760000
b1010 q
b1010 r
0Z
b1001100 ]
1Y
#765000
0Y
#770000
b1001101 ]
b1010 r
b1010 q
1Y
#775000
0Y
#780000
b10 n
b1001 o
b10110110111101 f
b1011111000100 j
b11111111111111111111111110110010 l
b1010 q
b1010 r
1\
b1001110 T
b1001110 b
1Z
b1001110 ]
1Y
#785000
0Y
#790000
1i
0Z
b1001111 ]
b1010 r
b1010 q
1Y
#795000
0Y
#800000
b1001 o
b0 n
0i
b1101 g
b1010 q
b1010 r
b1010000 ]
1Y
#805000
0Y
#810000
b1 n
b1001 o
b11000101100101 f
b1100110100001 k
b11111111111111111111111110101111 m
0\
b1010001 V
b1010001 d
1Z
b1010001 ]
b1010 r
b1010 q
1Y
#815000
0Y
#820000
b1010 q
b1010 r
0Z
b1010010 ]
1Y
#825000
0Y
#830000
b1010011 ]
b1010 r
b1010 q
1Y
#835000
0Y
#840000
b10 n
b1001 o
b11010100110001 f
b1101110010000 j
b11111111111111111111111110101100 l
b1010 q
b1010 r
1\
b1010100 T
b1010100 b
1Z
b1010100 ]
1Y
#845000
0Y
#850000
1i
0Z
b1010101 ]
b1010 r
b1010 q
1Y
#855000
0Y
#860000
b1001 o
b0 n
0i
b1110 g
b1010 q
b1010 r
b1010110 ]
1Y
#865000
0Y
#870000
b1 n
b1001 o
b11100100100001 f
b1110110010001 k
b11111111111111111111111110101001 m
0\
b1010111 V
b1010111 d
1Z
b1010111 ]
b1010 r
b1010 q
1Y
#875000
0Y
#880000
b1010 q
b1010 r
0Z
b1011000 ]
1Y
#885000
0Y
#890000
b1011001 ]
b1010 r
b1010 q
1Y
#895000
0Y
#900000
b10 n
b1001 o
b11110100110101 f
b1111110100100 j
b11111111111111111111111110100110 l
b1010 q
b1010 r
1\
b1011010 T
b1011010 b
1Z
b1011010 ]
1Y
#905000
0Y
#910000
1i
0Z
b1011011 ]
b1010 r
b1010 q
1Y
#915000
0Y
#920000
b1001 o
b0 n
0i
b1111 g
b1010 q
b1010 r
b1011100 ]
1Y
#925000
0Y
#930000
b1 n
b1001 o
b100000101101101 f
b10000111001001 k
b11111111111111111111111110100011 m
0\
b1011101 V
b1011101 d
1Z
b1011101 ]
b1010 r
b1010 q
1Y
#935000
0Y
#940000
b1010 q
b1010 r
0Z
b1011110 ]
1Y
#945000
0Y
#950000
b1011111 ]
b1010 r
b1010 q
1Y
#955000
0Y
#960000
b10 n
b1001 o
b100010111001001 f
b10010000000000 j
b11111111111111111111111110100000 l
b1010 q
b1010 r
1\
b1100000 T
b1100000 b
1Z
b1100000 ]
1Y
#965000
0Y
#970000
1i
0Z
b1100001 ]
b1010 r
b1010 q
1Y
#975000
0Y
#980000
b1001 o
b0 n
0i
b10000 g
b1010 q
b1010 r
b1100010 ]
1Y
#985000
0Y
#990000
b1 n
b1001 o
b100101001001001 f
b10011001001001 k
b11111111111111111111111110011101 m
0\
b1100011 V
b1100011 d
1Z
b1100011 ]
b1010 r
b1010 q
1Y
#995000
0Y
#1000000
b1010 q
b1010 r
b0 _
1W
b1100100 ]
1Y
#1005000
0Y
#1010000
b1 R
b1 `
b1 h
b1010 p
b1010 r
b1010 q
b1 X
b1 e
b1 _
1Y
#1015000
0Y
#1020000
b10 R
b10 `
b10 h
b1010 p
b1010 q
b1010 r
b10 X
b10 e
b10 _
1Y
#1025000
0Y
#1030000
b11 R
b11 `
b11 h
b1010 p
b1010 r
b1010 q
b11 X
b11 e
b11 _
1Y
#1035000
0Y
#1040000
b100 R
b100 `
b100 h
b1010 p
b1010 q
b1010 r
b100 X
b100 e
b100 _
1Y
#1045000
0Y
#1050000
b101 R
b101 `
b101 h
b1010 p
b1010 r
b1010 q
b101 X
b101 e
b101 _
1Y
#1055000
0Y
#1060000
b110 R
b110 `
b110 h
b1010 p
b1010 q
b1010 r
b110 X
b110 e
b110 _
1Y
#1065000
0Y
#1070000
b111 R
b111 `
b111 h
b1010 p
b1010 r
b1010 q
b111 X
b111 e
b111 _
1Y
#1075000
0Y
#1080000
b1000 R
b1000 `
b1000 h
b1010 p
b1010 q
b1010 r
b1000 X
b1000 e
b1000 _
1Y
#1085000
0Y
#1090000
b1001 R
b1001 `
b1001 h
b1010 p
b1010 r
b1010 q
b1001 X
b1001 e
b1001 _
1Y
#1095000
0Y
#1100000
b10 n
b1010 q
b1010 r
0W
b1010 _
1Y
#1101000
b1001 o
b0 g
b0 n
1[
#1105000
0Y
#1110000
b0 R
b0 `
b0 h
b1010 p
b1001 o
b1010 r
b1010 q
1Y
#1111000
0Z
b1 ]
b1 ^
0[
#1115000
0Y
#1120000
b1010 q
b1010 r
b10 ]
1Y
#1125000
0Y
#1130000
b1 n
b1001 o
b10011001010010 f
b1001 j
b11111111111111111111111111111101 l
1\
b11 T
b11 b
1Z
b11 ]
b1010 r
b1010 q
1Y
#1135000
0Y
#1140000
b1010 q
b1010 r
0Z
b100 ]
1Y
#1145000
0Y
#1150000
b101 ]
b1010 r
b1010 q
1Y
#1155000
0Y
#1160000
b10 n
b1001 o
b101101 f
b100100 k
b11111111111111111111111111111010 m
b1010 q
b1010 r
0\
b110 V
b110 d
1Z
b110 ]
1Y
#1165000
0Y
#1170000
1i
0Z
b111 ]
b1010 r
b1010 q
1Y
#1175000
0Y
#1180000
b1001 o
b1 g
0i
b0 n
b1010 q
b1010 r
b1000 ]
1Y
#1185000
0Y
#1190000
b1 n
b1001 o
b1110101 f
b1010001 j
b11111111111111111111111111110111 l
1\
b1001 T
b1001 b
1Z
b1001 ]
b1010 r
b1010 q
1Y
#1195000
0Y
#1200000
b1010 q
b1010 r
0Z
b1010 ]
1Y
#1205000
0Y
#1210000
b1011 ]
b1010 r
b1010 q
1Y
#1215000
0Y
#1220000
b10 n
b1001 o
b11100001 f
b10010000 k
b11111111111111111111111111110100 m
b1010 q
b1010 r
0\
b1100 V
b1100 d
1Z
b1100 ]
1Y
#1225000
0Y
#1230000
1i
0Z
b1101 ]
b1010 r
b1010 q
1Y
#1235000
0Y
#1240000
b1010 p
b1001 o
b10 g
0i
b0 n
b1010 q
b1010 r
b1110 ]
1Y
#1245000
0Y
#1250000
b1 n
b1001 o
b101110001 f
b11100001 j
b11111111111111111111111111110001 l
1\
b1111 T
b1111 b
1Z
b1111 ]
b1010 r
b1010 q
1Y
#1255000
0Y
#1260000
b1010 q
b1010 r
0Z
b10000 ]
1Y
#1265000
0Y
#1270000
b10001 ]
b1010 r
b1010 q
1Y
#1275000
0Y
#1280000
b10 n
b1001 o
b1000100101 f
b101000100 k
b11111111111111111111111111101110 m
b1010 q
b1010 r
0\
b10010 V
b10010 d
1Z
b10010 ]
1Y
#1285000
0Y
#1290000
1i
0Z
b10011 ]
b1010 r
b1010 q
1Y
#1295000
0Y
#1300000
b1010 p
b1001 o
b11 g
0i
b0 n
b1010 q
b1010 r
b10100 ]
1Y
#1305000
0Y
#1310000
b1 n
b1001 o
b1011111101 f
b110111001 j
b11111111111111111111111111101011 l
1\
b10101 T
b10101 b
1Z
b10101 ]
b1010 r
b1010 q
1Y
#1315000
0Y
#1320000
b1010 q
b1010 r
0Z
b10110 ]
1Y
#1325000
0Y
#1330000
b10111 ]
b1010 r
b1010 q
1Y
#1335000
0Y
#1340000
b10 n
b1001 o
b1111111001 f
b1001000000 k
b11111111111111111111111111101000 m
b1010 q
b1010 r
0\
b11000 V
b11000 d
1Z
b11000 ]
1Y
#1345000
0Y
#1350000
1i
0Z
b11001 ]
b1010 r
b1010 q
1Y
#1355000
0Y
#1360000
b1010 p
b1001 o
b100 g
0i
b0 n
b1010 q
b1010 r
b11010 ]
1Y
#1365000
0Y
#1370000
b1 n
b1001 o
b10100011001 f
b1011011001 j
b11111111111111111111111111100101 l
1\
b11011 T
b11011 b
1Z
b11011 ]
b1010 r
b1010 q
1Y
#1375000
0Y
#1380000
b1010 q
b1010 r
0Z
b11100 ]
1Y
#1385000
0Y
#1390000
b11101 ]
b1010 r
b1010 q
1Y
#1395000
0Y
#1400000
b10 n
b1001 o
b11001011101 f
b1110000100 k
b11111111111111111111111111100010 m
b1010 q
b1010 r
0\
b11110 V
b11110 d
1Z
b11110 ]
1Y
#1405000
0Y
#1410000
1i
0Z
b11111 ]
b1010 r
b1010 q
1Y
#1415000
0Y
#1420000
b1010 p
b1001 o
b101 g
0i
b0 n
b1010 q
b1010 r
b100000 ]
1Y
#1425000
0Y
#1430000
b1 n
b1001 o
b11111000101 f
b10001000001 j
b11111111111111111111111111011111 l
1\
b100001 T
b100001 b
1Z
b100001 ]
b1010 r
b1010 q
1Y
#1435000
0Y
#1440000
b1010 q
b1010 r
0Z
b100010 ]
1Y
#1445000
0Y
#1450000
b100011 ]
b1010 r
b1010 q
1Y
#1455000
0Y
#1460000
b10 n
b1001 o
b100101010001 f
b10100010000 k
b11111111111111111111111111011100 m
b1010 q
b1010 r
0\
b100100 V
b100100 d
1Z
b100100 ]
1Y
#1465000
0Y
#1470000
1i
0Z
b100101 ]
b1010 r
b1010 q
1Y
#1475000
0Y
#1480000
b1010 p
b1001 o
b110 g
0i
b0 n
b1010 q
b1010 r
b100110 ]
1Y
#1485000
0Y
#1490000
b1 n
b1001 o
b101100000001 f
b10111110001 j
b11111111111111111111111111011001 l
1\
b100111 T
b100111 b
1Z
b100111 ]
b1010 r
b1010 q
1Y
#1495000
0Y
#1500000
b1010 q
b1010 r
0Z
b101000 ]
1Y
#1505000
0Y
#1510000
b101001 ]
b1010 r
b1010 q
1Y
#1515000
0Y
#1520000
b10 n
b1001 o
b110011010101 f
b11011100100 k
b11111111111111111111111111010110 m
b1010 q
b1010 r
0\
b101010 V
b101010 d
1Z
b101010 ]
1Y
#1525000
0Y
#1530000
1i
0Z
b101011 ]
b1010 r
b1010 q
1Y
#1535000
0Y
#1540000
b1010 p
b1001 o
b111 g
0i
b0 n
b1010 q
b1010 r
b101100 ]
1Y
#1545000
0Y
#1550000
b1 n
b1001 o
b111011001101 f
b11111101001 j
b11111111111111111111111111010011 l
1\
b101101 T
b101101 b
1Z
b101101 ]
b1010 r
b1010 q
1Y
#1555000
0Y
#1560000
b1010 q
b1010 r
0Z
b101110 ]
1Y
#1565000
0Y
#1570000
b101111 ]
b1010 r
b1010 q
1Y
#1575000
0Y
#1580000
b10 n
b1001 o
b1000011101001 f
b100100000000 k
b11111111111111111111111111010000 m
b1010 q
b1010 r
0\
b110000 V
b110000 d
1Z
b110000 ]
1Y
#1585000
0Y
#1590000
1i
0Z
b110001 ]
b1010 r
b1010 q
1Y
#1595000
0Y
#1600000
b1010 p
b1001 o
b1000 g
0i
b0 n
b1010 q
b1010 r
b110010 ]
1Y
#1605000
0Y
#1610000
b1 n
b1001 o
b1001100101001 f
b101000101001 j
b11111111111111111111111111001101 l
1\
b110011 T
b110011 b
1Z
b110011 ]
b1010 r
b1010 q
1Y
#1615000
0Y
#1620000
b1010 q
b1010 r
0Z
b110100 ]
1Y
#1625000
0Y
#1630000
b110101 ]
b1010 r
b1010 q
1Y
#1635000
0Y
#1640000
b10 n
b1001 o
b1010110001101 f
b101101100100 k
b11111111111111111111111111001010 m
b1010 q
b1010 r
0\
b110110 V
b110110 d
1Z
b110110 ]
1Y
#1645000
0Y
#1650000
1i
0Z
b110111 ]
b1010 r
b1010 q
1Y
#1655000
0Y
#1660000
b1010 p
b1001 o
b1001 g
0i
b0 n
b1010 q
b1010 r
b111000 ]
1Y
#1665000
0Y
#1670000
b1 n
b1001 o
b1100000010101 f
b110010110001 j
b11111111111111111111111111000111 l
1\
b111001 T
b111001 b
1Z
b111001 ]
b1010 r
b1010 q
1Y
#1675000
0Y
#1680000
b1010 q
b1010 r
0Z
b111010 ]
1Y
#1685000
0Y
#1690000
b111011 ]
b1010 r
b1010 q
1Y
#1695000
0Y
#1700000
b10 n
b1001 o
b1101011000001 f
b111000010000 k
b11111111111111111111111111000100 m
b1010 q
b1010 r
0\
b111100 V
b111100 d
1Z
b111100 ]
1Y
#1705000
0Y
#1710000
1i
0Z
b111101 ]
b1010 r
b1010 q
1Y
#1715000
0Y
#1720000
b1001 R
b1001 `
b1001 h
b1010 p
b1001 o
b1010 g
0i
b0 n
b1010 q
b1010 r
b111110 ]
1Y
#1725000
0Y
#1730000
b1 n
b1001 o
b1110110010001 f
b111110000001 j
b11111111111111111111111111000001 l
1\
b111111 T
b111111 b
1Z
b111111 ]
b1010 r
b1010 q
1Y
#1735000
0Y
#1740000
b1010 q
b1010 r
0Z
b1000000 ]
1Y
#1745000
0Y
#1750000
b1000001 ]
b1010 r
b1010 q
1Y
#1755000
0Y
#1760000
b10 n
b1001 o
b10000010000101 f
b1000100000100 k
b11111111111111111111111110111110 m
b1010 q
b1010 r
0\
b1000010 V
b1000010 d
1Z
b1000010 ]
1Y
#1765000
0Y
#1770000
1i
0Z
b1000011 ]
b1010 r
b1010 q
1Y
#1775000
0Y
#1780000
b1001 o
b1011 g
0i
b0 n
b1010 q
b1010 r
b1000100 ]
1Y
#1785000
0Y
#1790000
b1 n
b1001 o
b10001110011101 f
b1001010011001 j
b11111111111111111111111110111011 l
1\
b1000101 T
b1000101 b
1Z
b1000101 ]
b1010 r
b1010 q
1Y
#1795000
0Y
#1800000
b1010 q
b1010 r
0Z
b1000110 ]
1Y
#1805000
0Y
#1810000
b1000111 ]
b1010 r
b1010 q
1Y
#1815000
0Y
#1820000
b10 n
b1001 o
b10011011011001 f
b1010001000000 k
b11111111111111111111111110111000 m
b1010 q
b1010 r
0\
b1001000 V
b1001000 d
1Z
b1001000 ]
1Y
#1825000
0Y
#1830000
1i
0Z
b1001001 ]
b1010 r
b1010 q
1Y
#1835000
0Y
#1840000
b1001 o
b1100 g
0i
b0 n
b1010 q
b1010 r
b1001010 ]
1Y
#1845000
0Y
#1850000
b1 n
b1001 o
b10101000111001 f
b1010111111001 j
b11111111111111111111111110110101 l
1\
b1001011 T
b1001011 b
1Z
b1001011 ]
b1010 r
b1010 q
1Y
#1855000
0Y
#1860000
b1010 q
b1010 r
0Z
b1001100 ]
1Y
#1865000
0Y
#1870000
b1001101 ]
b1010 r
b1010 q
1Y
#1875000
0Y
#1880000
b10 n
b1001 o
b10110110111101 f
b1011111000100 k
b11111111111111111111111110110010 m
b1010 q
b1010 r
0\
b1001110 V
b1001110 d
1Z
b1001110 ]
1Y
#1885000
0Y
#1890000
1i
0Z
b1001111 ]
b1010 r
b1010 q
1Y
#1895000
0Y
#1900000
b1001 o
b1101 g
0i
b0 n
b1010 q
b1010 r
b1010000 ]
1Y
#1905000
0Y
#1910000
b1 n
b1001 o
b11000101100101 f
b1100110100001 j
b11111111111111111111111110101111 l
1\
b1010001 T
b1010001 b
1Z
b1010001 ]
b1010 r
b1010 q
1Y
#1915000
0Y
#1920000
b1010 q
b1010 r
0Z
b1010010 ]
1Y
#1925000
0Y
#1930000
b1010011 ]
b1010 r
b1010 q
1Y
#1935000
0Y
#1940000
b10 n
b1001 o
b11010100110001 f
b1101110010000 k
b11111111111111111111111110101100 m
b1010 q
b1010 r
0\
b1010100 V
b1010100 d
1Z
b1010100 ]
1Y
#1945000
0Y
#1950000
1i
0Z
b1010101 ]
b1010 r
b1010 q
1Y
#1955000
0Y
#1960000
b1001 o
b1110 g
0i
b0 n
b1010 q
b1010 r
b1010110 ]
1Y
#1965000
0Y
#1970000
b1 n
b1001 o
b11100100100001 f
b1110110010001 j
b11111111111111111111111110101001 l
1\
b1010111 T
b1010111 b
1Z
b1010111 ]
b1010 r
b1010 q
1Y
#1975000
0Y
#1980000
b1010 q
b1010 r
0Z
b1011000 ]
1Y
#1985000
0Y
#1990000
b1011001 ]
b1010 r
b1010 q
1Y
#1995000
0Y
#2000000
b10 n
b1001 o
b11110100110101 f
b1111110100100 k
b11111111111111111111111110100110 m
b1010 q
b1010 r
0\
b1011010 V
b1011010 d
1Z
b1011010 ]
1Y
#2005000
0Y
#2010000
1i
0Z
b1011011 ]
b1010 r
b1010 q
1Y
#2015000
0Y
#2020000
b1001 o
b1111 g
0i
b0 n
b1010 q
b1010 r
b1011100 ]
1Y
#2025000
0Y
