hardware/simulation/icarus/knn.vcd
$date
	Wed Dec  2 12:23:10 2020
$end
$version
	Icarus Verilog
$end
$timescale
	1ps
$end
$scope module iob_knn $end
$var wire 3 ! address [2:0] $end
$var wire 1 " clk $end
$var wire 32 # rdata [31:0] $end
$var wire 1 $ ready $end
$var wire 1 % rst $end
$var wire 1 & valid $end
$var wire 32 ' wdata [31:0] $end
$var wire 4 ( wstrb [3:0] $end
$var wire 8 ) DATA_OUT [7:0] $end
$var reg 32 * DATA_1 [31:0] $end
$var reg 32 + DATA_2 [31:0] $end
$var reg 1 , DONE $end
$var reg 1 - KNN_RESET $end
$var reg 2 . SEL [1:0] $end
$var reg 32 / rdata_int [31:0] $end
$var reg 1 0 ready_int $end
$var reg 1 1 rst_int $end
$var reg 1 2 write $end
$scope module sorter0 $end
$var wire 32 3 DATA_1 [31:0] $end
$var wire 32 4 DATA_2 [31:0] $end
$var wire 8 5 DATA_OUT [7:0] $end
$var wire 1 , DONE $end
$var wire 2 6 SEL [1:0] $end
$var wire 1 " clk $end
$var wire 1 & ready $end
$var wire 1 1 rst $end
$var reg 32 7 DATA0_OUT_INT [31:0] $end
$var reg 32 8 DATA1_IN_INT [31:0] $end
$var reg 32 9 DATA1_OUT_INT [31:0] $end
$var reg 32 : DATA2_IN_INT [31:0] $end
$var reg 32 ; DATA2_OUT_INT [31:0] $end
$var reg 32 < DATA3_IN_INT [31:0] $end
$var reg 32 = DATA3_OUT_INT [31:0] $end
$var reg 16 > DATA_X1 [15:0] $end
$var reg 16 ? DATA_X2 [15:0] $end
$var reg 16 @ DATA_Y1 [15:0] $end
$var reg 16 A DATA_Y2 [15:0] $end
$var reg 32 B DIST [31:0] $end
$var reg 1 C c0 $end
$var reg 1 D c1 $end
$var reg 1 E c2 $end
$var reg 1 F c3 $end
$var reg 8 G idx0_out [7:0] $end
$var reg 8 H idx1_cnt_int [7:0] $end
$var reg 8 I idx1_out [7:0] $end
$var reg 8 J idx2_cnt_int [7:0] $end
$var reg 8 K idx2_out [7:0] $end
$var reg 8 L idx3_cnt_int [7:0] $end
$var reg 8 M idx3_out [7:0] $end
$var reg 8 N idx_cnt [7:0] $end
$var reg 8 O idx_out [7:0] $end
$var reg 32 P sqr1 [31:0] $end
$var reg 32 Q sqr2 [31:0] $end
$var reg 32 R sub1 [31:0] $end
$var reg 32 S sub2 [31:0] $end
$upscope $end
$upscope $end
$scope module knn_tb $end
$var wire 8 T DATA_OUT [7:0] $end
$var reg 32 U DATA_1 [31:0] $end
$var reg 32 V DATA_2 [31:0] $end
$var reg 16 W DATA_X1 [15:0] $end
$var reg 16 X DATA_X2 [15:0] $end
$var reg 16 Y DATA_Y1 [15:0] $end
$var reg 16 Z DATA_Y2 [15:0] $end
$var reg 1 [ DONE $end
$var reg 2 \ SEL [1:0] $end
$var reg 1 ] clk $end
$var reg 1 ^ ready $end
$var reg 1 _ rst $end
$var integer 32 ` i [31:0] $end
$var integer 32 a j [31:0] $end
$var integer 32 b k [31:0] $end
$scope module sorter0 $end
$var wire 32 c DATA_1 [31:0] $end
$var wire 32 d DATA_2 [31:0] $end
$var wire 8 e DATA_OUT [7:0] $end
$var wire 1 [ DONE $end
$var wire 2 f SEL [1:0] $end
$var wire 1 ] clk $end
$var wire 1 ^ ready $end
$var wire 1 _ rst $end
$var reg 32 g DATA0_OUT_INT [31:0] $end
$var reg 32 h DATA1_IN_INT [31:0] $end
$var reg 32 i DATA1_OUT_INT [31:0] $end
$var reg 32 j DATA2_IN_INT [31:0] $end
$var reg 32 k DATA2_OUT_INT [31:0] $end
$var reg 32 l DATA3_IN_INT [31:0] $end
$var reg 32 m DATA3_OUT_INT [31:0] $end
$var reg 16 n DATA_X1 [15:0] $end
$var reg 16 o DATA_X2 [15:0] $end
$var reg 16 p DATA_Y1 [15:0] $end
$var reg 16 q DATA_Y2 [15:0] $end
$var reg 32 r DIST [31:0] $end
$var reg 1 s c0 $end
$var reg 1 t c1 $end
$var reg 1 u c2 $end
$var reg 1 v c3 $end
$var reg 8 w idx0_out [7:0] $end
$var reg 8 x idx1_cnt_int [7:0] $end
$var reg 8 y idx1_out [7:0] $end
$var reg 8 z idx2_cnt_int [7:0] $end
$var reg 8 { idx2_out [7:0] $end
$var reg 8 | idx3_cnt_int [7:0] $end
$var reg 8 } idx3_out [7:0] $end
$var reg 8 ~ idx_cnt [7:0] $end
$var reg 8 !" idx_out [7:0] $end
$var reg 32 "" sqr1 [31:0] $end
$var reg 32 #" sqr2 [31:0] $end
$var reg 32 $" sub1 [31:0] $end
$var reg 32 %" sub2 [31:0] $end
$upscope $end
$upscope $end
$enddefinitions $end
#0
$dumpvars
bx %"
bx $"
bx #"
bx ""
bx !"
bx ~
bx }
bx |
bx {
bx z
bx y
bx x
bx w
0v
0u
0t
0s
bx r
bx q
b0 p
bx o
b0 n
bx m
bx l
bx k
bx j
bx i
bx h
bx g
b0 f
bx e
bx d
b0 c
bx b
bx a
bx `
0_
0^
1]
b0 \
0[
bx Z
b0 Y
bx X
b0 W
bx V
b0 U
bx T
bx S
bx R
bx Q
bx P
bx O
bx N
bx M
bx L
bx K
bx J
bx I
bx H
bx G
xF
xE
xD
xC
bx B
bx A
bx @
bx ?
bx >
bx =
bx <
bx ;
bx :
bx 9
bx 8
bx 7
bx 6
bx 5
bx 4
bx 3
x2
x1
x0
b0 /
bx .
x-
x,
bx +
bx *
bx )
bz (
bz '
z&
z%
x$
b0 #
z"
bz !
$end
#5000
0]
#7000
b0 |
b0 z
b0 x
b0 ~
1_
#10000
b0 T
b0 e
b0 !"
b11111111111111111111111111111111 g
b11111111111111111111111111111111 i
b11111111111111111111111111111111 k
b11111111111111111111111111111111 m
b0 w
b0 y
b0 {
b0 }
1]
#15000
0]
#17000
b1 `
b0 a
0_
#20000
b10 `
1]
#25000
0]
#30000
b11 `
1]
#35000
0]
#40000
b100 `
1]
#45000
0]
#50000
b1 ~
1v
b11111111111111111111111111111111 l
1u
b11111111111111111111111111111111 j
1t
b11111111111111111111111111111111 h
1s
b110101001 r
b101101001 #"
b1000000 ""
b10011 %"
b11111111111111111111111111111000 $"
b1111111111101101 q
b1000 o
b10001111111111101101 V
b10001111111111101101 d
b1111111111101101 Z
b1000 X
1^
b101 `
1]
#55000
0]
#60000
0^
b110 `
1]
#65000
0]
#70000
b111 `
1]
#75000
0]
#80000
b1000 `
1]
#85000
0]
#90000
b1001 `
1]
#95000
0]
#100000
b1 T
b1 e
b1 !"
b10 x
b110111010 h
0s
b10 ~
b1 w
b110101001 g
b110111010 r
b1010001 #"
b101101001 ""
b1001 %"
b10011 $"
b1111111111110111 q
b1111111111101101 o
b11111111111011011111111111110111 V
b11111111111011011111111111110111 d
b1111111111110111 Z
b1111111111101101 X
1^
b1010 `
1]
#105000
0]
#110000
b10 z
b110111010 j
0t
b110111010 i
b10 y
0^
b1011 `
1]
#115000
0]
#120000
b1100 `
1]
#125000
0]
#130000
b1101 `
1]
#135000
0]
#140000
b1110 `
1]
#145000
0]
#150000
b11 z
b11 x
b11 ~
b1001000010 j
b1001000010 h
b1001000010 r
b100100001 #"
b100100001 ""
b11111111111111111111111111101111 %"
b11111111111111111111111111101111 $"
b10001 q
b10001 o
b100010000000000010001 V
b100010000000000010001 d
b10001 Z
b10001 X
1^
b1111 `
1]
#155000
0]
#160000
0^
b10000 `
1]
#165000
0]
#170000
b10001 `
1]
#175000
0]
#180000
b10010 `
1]
#185000
0]
#190000
b10011 `
1]
#195000
0]
#200000
b11 |
b1001000010 l
b100 ~
b11 {
b1001000010 k
b10 z
b110111010 j
1t
b1 x
b110101001 h
1s
b100111101 r
b11000100 #"
b1111001 ""
b1110 %"
b1011 $"
b1111111111110010 q
b1111111111110101 o
b11111111111101011111111111110010 V
b11111111111101011111111111110010 d
b1111111111110010 Z
b1111111111110101 X
1^
b10100 `
1]
#205000
0]
#210000
b10 |
b110111010 l
b1 z
b110101001 j
b100 x
b100111101 h
0s
b100 T
b100 e
b100 !"
b100111101 g
b110101001 i
b110111010 k
b1001000010 m
b100 w
b1 y
b10 {
b11 }
0^
b10101 `
1]
#215000
0]
#220000
b10110 `
1]
#225000
0]
#230000
b10111 `
1]
#235000
0]
#240000
b11000 `
1]
#245000
0]
#250000
b101 ~
1s
b1010010 r
b1010001 #"
b1 ""
b11111111111111111111111111110111 %"
b11111111111111111111111111111111 $"
b1001 q
b1 o
b10000000000001001 V
b10000000000001001 d
b1001 Z
b1 X
1^
b11001 `
1]
#255000
0]
#260000
0^
b11010 `
1]
#265000
0]
#270000
b11011 `
1]
#275000
0]
#280000
b11100 `
1]
#285000
0]
#290000
b11101 `
1]
#295000
0]
#300000
b101 T
b101 e
b101 !"
b110 ~
b10 }
b1 {
b100 y
b101 w
b110111010 m
b110101001 k
b100111101 i
b1010010 g
0v
b110 |
b1001100101 l
0u
b110 z
b1001100101 j
0t
b110 x
b1001100101 h
0s
b1001100101 r
b100100001 #"
b101000100 ""
b11111111111111111111111111101111 %"
b11111111111111111111111111101110 $"
b10001 q
b10010 o
b100100000000000010001 V
b100100000000000010001 d
b10001 Z
b10010 X
1^
b11110 `
1]
#305000
0]
#310000
0^
b11111 `
1]
#315000
0]
#320000
b100000 `
1]
#325000
0]
#330000
b100001 `
1]
#335000
0]
#340000
b100010 `
1]
#345000
0]
#350000
b111 x
b111 ~
1v
b1 |
b110101001 l
1u
b100 z
b100111101 j
1t
b11100001 h
b11100001 r
b10010000 #"
b1010001 ""
b11111111111111111111111111110100 %"
b11111111111111111111111111110111 $"
b1100 q
b1001 o
b10010000000000001100 V
b10010000000000001100 d
b1100 Z
b1001 X
1^
b100011 `
1]
#355000
0]
#360000
0^
b100100 `
1]
#365000
0]
#370000
b100101 `
1]
#375000
0]
#380000
b100110 `
1]
#385000
0]
#390000
b100111 `
1]
#395000
0]
#400000
b100 |
b100111101 l
b111 z
b11100001 j
b1000 x
b1000 ~
b1 }
b100 {
b111 y
b110101001 m
b100111101 k
b11100001 i
b10110101 h
b10110101 r
b1100100 #"
b1010 %"
b1111111111110110 q
b10011111111111110110 V
b10011111111111110110 d
b1111111111110110 Z
1^
b101000 `
1]
#405000
0]
#410000
b111 |
b11100001 l
b1000 z
b10110101 j
0t
b10110101 i
b11100001 k
b100111101 m
b1000 y
b111 {
b100 }
0^
b101001 `
1]
#415000
0]
#420000
b101010 `
1]
#425000
0]
#430000
b101011 `
1]
#435000
0]
#440000
b101100 `
1]
#445000
0]
#450000
b1001 z
b1001 x
b1001 ~
0v
b1001 |
b1000101101 l
0u
b1000101101 j
b1000101101 h
b1000101101 r
b11000100 #"
b101101001 ""
b1110 %"
b10011 $"
b1111111111110010 q
b1111111111101101 o
b11111111111011011111111111110010 V
b11111111111011011111111111110010 d
b1111111111110010 Z
b1111111111101101 X
1^
b101101 `
1]
#455000
0]
#460000
0^
b101110 `
1]
#465000
0]
#470000
b101111 `
1]
#475000
0]
#480000
b110000 `
1]
#485000
0]
#490000
b110001 `
1]
#495000
0]
#500000
b1010 ~
1v
b111 |
b11100001 l
1u
b1000 z
b10110101 j
1t
b101 x
b1010010 h
1s
b11010 r
b1 #"
b11001 ""
b1 %"
b11111111111111111111111111111011 $"
b1111111111111111 q
b101 o
b1011111111111111111 V
b1011111111111111111 d
b1111111111111111 Z
b101 X
1^
b110010 `
1]
#505000
0]
#510000
b1000 |
b10110101 l
b101 z
b1010010 j
b1010 x
b11010 h
0s
b1010 T
b1010 e
b1010 !"
b11010 g
b1010010 i
b10110101 k
b11100001 m
b1010 w
b101 y
b1000 {
b111 }
0^
b110011 `
1]
#515000
0]
#520000
b110100 `
1]
#525000
0]
#530000
b110101 `
1]
#535000
0]
#540000
b110110 `
1]
#545000
0]
#550000
b1011 x
b1011 ~
0v
b1011 |
b101101101 l
0u
b1011 z
b101101101 j
0t
b101101101 h
b101101101 r
b101101001 #"
b100 ""
b11111111111111111111111111101101 %"
b10 $"
b10011 q
b1111111111111110 o
b11111111111111100000000000010011 V
b11111111111111100000000000010011 d
b10011 Z
b1111111111111110 X
1^
b110111 `
1]
#555000
0]
#560000
0^
b111000 `
1]
#565000
0]
#570000
b111001 `
1]
#575000
0]
#580000
b111010 `
1]
#585000
0]
#590000
b111011 `
1]
#595000
0]
#600000
b1100 x
b1100 ~
1v
b1000 |
b10110101 l
1u
b101 z
b1010010 j
1t
b1001000 h
b1001000 r
b100100 #"
b100100 ""
b110 %"
b11111111111111111111111111111010 $"
b1111111111111010 q
b110 o
b1101111111111111010 V
b1101111111111111010 d
b1111111111111010 Z
b110 X
1^
b111100 `
1]
#605000
0]
#610000
b101 |
b1010010 l
b1100 z
b1001000 j
0t
b1001000 i
b1010010 k
b10110101 m
b1100 y
b101 {
b1000 }
0^
b111101 `
1]
#615000
0]
#620000
b111110 `
1]
#625000
0]
#630000
b111111 `
1]
#635000
0]
#640000
b1000000 `
1]
#645000
0]
#650000
b1101 z
b1101 x
b1101 ~
b1001001 j
b1001001 h
b1001001 r
b1001 #"
b1000000 ""
b11 %"
b1000 $"
b1111111111111101 q
b1111111111111000 o
b11111111111110001111111111111101 V
b11111111111110001111111111111101 d
b1111111111111101 Z
b1111111111111000 X
1^
b1000001 `
1]
#655000
0]
#660000
0^
b1000010 `
1]
#665000
0]
#670000
b1000011 `
1]
#675000
0]
#680000
b1000100 `
1]
#685000
0]
#690000
b1000101 `
1]
#695000
0]
#700000
b1101 |
b1001001 l
b1110 ~
b101 }
b1101 {
b1010010 m
b1001001 k
b1100 z
b1001000 j
1t
b1010 x
b11010 h
1s
b11001 r
b10000 ""
b11111111111111111111111111111100 $"
b100 o
b1001111111111111101 V
b1001111111111111101 d
b100 X
1^
b1000110 `
1]
#705000
0]
#710000
b1100 |
b1001000 l
b1010 z
b11010 j
b1110 x
b11001 h
0s
b1110 T
b1110 e
b1110 !"
b11001 g
b11010 i
b1001000 k
b1001001 m
b1110 w
b1010 y
b1100 {
b1101 }
0^
b1000111 `
1]
#715000
0]
#720000
b1001000 `
1]
#725000
0]
#730000
b1001001 `
1]
#735000
0]
#740000
b1001010 `
1]
#745000
0]
#750000
b1111 x
b1111 ~
0v
b1111 |
b1100010 l
0u
b1111 z
b1100010 j
0t
b1100010 h
b1100010 r
b110001 #"
b110001 ""
b111 %"
b111 $"
b1111111111111001 q
b1111111111111001 o
b11111111111110011111111111111001 V
b11111111111110011111111111111001 d
b1111111111111001 Z
b1111111111111001 X
1^
b1001011 `
1]
#755000
0]
#760000
0^
b1001100 `
1]
#765000
0]
#770000
b1001101 `
1]
#775000
0]
#780000
b1001110 `
1]
#785000
0]
#790000
b1001111 `
1]
#795000
0]
#800000
b10000 |
b10000 z
b10000 x
b10000 ~
b100001101 l
b100001101 j
b100001101 h
b100001101 r
b1100100 #"
b10101001 ""
b11111111111111111111111111110110 %"
b1101 $"
b1010 q
b1111111111110011 o
b11111111111100110000000000001010 V
b11111111111100110000000000001010 d
b1010 Z
b1111111111110011 X
1^
b1010000 `
1]
#805000
0]
#810000
0^
b1010001 `
1]
#815000
0]
#820000
b1010010 `
1]
#825000
0]
#830000
b1010011 `
1]
#835000
0]
#840000
b1010100 `
1]
#845000
0]
#850000
b10001 |
b10001 z
b10001 x
b10001 ~
b101000000 l
b101000000 j
b101000000 h
b101000000 r
b100000000 #"
b1000000 ""
b11111111111111111111111111110000 %"
b1000 $"
b10000 q
b1111111111111000 o
b11111111111110000000000000010000 V
b11111111111110000000000000010000 d
b10000 Z
b1111111111111000 X
1^
b1010101 `
1]
#855000
0]
#860000
0^
b1010110 `
1]
#865000
0]
#870000
b1010111 `
1]
#875000
0]
#880000
b1011000 `
1]
#885000
0]
#890000
b1011001 `
1]
#895000
0]
#900000
b10010 |
b10010 z
b10010 x
b10010 ~
b110100101 l
b110100101 j
b110100101 h
b110100101 r
b11100001 #"
b11000100 ""
b1111 %"
b11111111111111111111111111110010 $"
b1111111111110001 q
b1110 o
b11101111111111110001 V
b11101111111111110001 d
b1111111111110001 Z
b1110 X
1^
b1011010 `
1]
#905000
0]
#910000
0^
b1011011 `
1]
#915000
0]
#920000
b1011100 `
1]
#925000
0]
#930000
b1011101 `
1]
#935000
0]
#940000
b1011110 `
1]
#945000
0]
#950000
b10011 |
b10011 z
b10011 x
b10011 ~
b11011101 l
b11011101 j
b11011101 h
b11011101 r
b11001 #"
b101 %"
b1110 $"
b1111111111111011 q
b1111111111110010 o
b11111111111100101111111111111011 V
b11111111111100101111111111111011 d
b1111111111111011 Z
b1111111111110010 X
1^
b1011111 `
1]
#955000
0]
#960000
0^
b1100000 `
1]
#965000
0]
#970000
b1100001 `
1]
#975000
0]
#980000
b1100010 `
1]
#985000
0]
#990000
b1100011 `
1]
#995000
0]
#1000000
b0 b
1[
b1100100 `
1]
#1005000
0]
#1010000
b1010 T
b1010 e
b1010 !"
b1 \
b1 f
b1 b
1]
#1015000
0]
#1020000
b1100 T
b1100 e
b1100 !"
b10 \
b10 f
b10 b
1]
#1025000
0]
#1030000
b1101 T
b1101 e
b1101 !"
b11 \
b11 f
b11 b
1]
#1035000
0]
#1040000
0[
b100 b
1]
#1041000
b0 |
b0 z
b0 x
b0 ~
1_
#1045000
0]
#1050000
1v
b11111111111111111111111111111111 l
1u
b11111111111111111111111111111111 j
1t
b11111111111111111111111111111111 h
1s
b0 T
b0 e
b0 !"
b11111111111111111111111111111111 g
b11111111111111111111111111111111 i
b11111111111111111111111111111111 k
b11111111111111111111111111111111 m
b0 w
b0 y
b0 {
b0 }
1]
#1051000
b1 `
b1 a
0_
#1055000
0]
#1060000
b10 `
1]
#1065000
0]
#1070000
b11 `
1]
#1075000
0]
#1080000
b100 `
1]
#1085000
0]
#1090000
b1 ~
b110001010 r
b10101001 #"
b11100001 ""
b1101 %"
b1111 $"
b1111111111110011 q
b1111111111110001 o
b11111111111100011111111111110011 V
b11111111111100011111111111110011 d
b1111111111110011 Z
b1111111111110001 X
1^
b101 `
1]
#1095000
0]
#1100000
0^
b110 `
1]
#1105000
0]
#1110000
b111 `
1]
#1115000
0]
#1120000
b1000 `
1]
#1125000
0]
#1130000
b1001 `
1]
#1135000
0]
#1140000
b1 x
b110001010 h
b10 ~
b1 w
b110001010 g
b101011010 r
b1111001 #"
b1011 %"
b11111111111111111111111111110001 $"
b1111111111110101 q
b1111 o
b11111111111111110101 V
b11111111111111110101 d
b1111111111110101 Z
b1111 X
1^
b1010 `
1]
#1145000
0]
#1150000
b1 z
b110001010 j
b10 x
b101011010 h
0s
b101011010 g
b110001010 i
b10 w
b1 y
0^
b1011 `
1]
#1155000
0]
#1160000
b1100 `
1]
#1165000
0]
#1170000
b1101 `
1]
#1175000
0]
#1180000
b1110 `
1]
#1185000
0]
#1190000
b11 x
b11 ~
b11 z
b1000001000 j
0t
b1000001000 h
b1000001000 r
b11000100 #"
b101000100 ""
b1110 %"
b10010 $"
b1111111111110010 q
b1111111111101110 o
b11111111111011101111111111110010 V
b11111111111011101111111111110010 d
b1111111111110010 Z
b1111111111101110 X
1^
b1111 `
1]
#1195000
0]
#1200000
0^
b10000 `
1]
#1205000
0]
#1210000
b10001 `
1]
#1215000
0]
#1220000
b10010 `
1]
#1225000
0]
#1230000
b10011 `
1]
#1235000
0]
#1240000
b11 |
b1000001000 l
b100 ~
b11 {
b1000001000 k
b1 z
b110001010 j
1t
b10 x
b101011010 h
1s
b100100010 r
b100100001 #"
b1 ""
b10001 %"
b11111111111111111111111111111111 $"
b1111111111101111 q
b1 o
b11111111111101111 V
b11111111111101111 d
b1111111111101111 Z
b1 X
1^
b10100 `
1]
#1245000
0]
#1250000
b1 |
b110001010 l
b10 z
b101011010 j
b100 x
b100100010 h
0s
b11 T
b11 e
b11 !"
b100100010 g
b101011010 i
b110001010 k
b1000001000 m
b100 w
b10 y
b1 {
b11 }
0^
b10101 `
1]
#1255000
0]
#1260000
b10110 `
1]
#1265000
0]
#1270000
b10111 `
1]
#1275000
0]
#1280000
b11000 `
1]
#1285000
0]
#1290000
b101 ~
1s
b10010101 r
b1100100 #"
b110001 ""
b11111111111111111111111111110110 %"
b11111111111111111111111111111001 $"
b1010 q
b111 o
b1110000000000001010 V
b1110000000000001010 d
b1010 Z
b111 X
1^
b11001 `
1]
#1295000
0]
#1300000
0^
b11010 `
1]
#1305000
0]
#1310000
b11011 `
1]
#1315000
0]
#1320000
b11100 `
1]
#1325000
0]
#1330000
b11101 `
1]
#1335000
0]
#1340000
b1 T
b1 e
b1 !"
b10 |
b101011010 l
b100 z
b100100010 j
b110 x
b10100100 h
0s
b110 ~
b1 }
b10 {
b100 y
b101 w
b110001010 m
b101011010 k
b100100010 i
b10010101 g
b10100100 r
b1000000 #"
b1100100 ""
b1000 %"
b1010 $"
b1111111111111000 q
b1111111111110110 o
b11111111111101101111111111111000 V
b11111111111101101111111111111000 d
b1111111111111000 Z
b1111111111110110 X
1^
b11110 `
1]
#1345000
0]
#1350000
b100 |
b100100010 l
b110 z
b10100100 j
0t
b10 T
b10 e
b10 !"
b10100100 i
b100100010 k
b101011010 m
b110 y
b100 {
b10 }
0^
b11111 `
1]
#1355000
0]
#1360000
b100000 `
1]
#1365000
0]
#1370000
b100001 `
1]
#1375000
0]
#1380000
b100010 `
1]
#1385000
0]
#1390000
b111 ~
1t
b101 x
b10010101 h
1s
b10001000 r
b1100100 #"
b100100 ""
b11111111111111111111111111110110 %"
b11111111111111111111111111111010 $"
b1010 q
b110 o
b1100000000000001010 V
b1100000000000001010 d
b1010 Z
b110 X
1^
b100011 `
1]
#1395000
0]
#1400000
0^
b100100 `
1]
#1405000
0]
#1410000
b100101 `
1]
#1415000
0]
#1420000
b100110 `
1]
#1425000
0]
#1430000
b100111 `
1]
#1435000
0]
#1440000
b100 T
b100 e
b100 !"
b1000 ~
b100 }
b110 {
b101 y
b111 w
b100100010 m
b10100100 k
b10010101 i
b10001000 g
0v
b1000 |
b110110001 l
0u
b1000 z
b110110001 j
0t
b1000 x
b110110001 h
0s
b110110001 r
b10010000 #"
b100100001 ""
b1100 %"
b11111111111111111111111111101111 $"
b1111111111110100 q
b10001 o
b100011111111111110100 V
b100011111111111110100 d
b1111111111110100 Z
b10001 X
1^
b101000 `
1]
#1445000
0]
#1450000
0^
b101001 `
1]
#1455000
0]
#1460000
b101010 `
1]
#1465000
0]
#1470000
b101011 `
1]
#1475000
0]
#1480000
b101100 `
1]
#1485000
0]
#1490000
b1001 ~
1v
b110 |
b10100100 l
1u
b101 z
b10010101 j
1t
b111 x
b10001000 h
1s
b110001 r
b110001 #"
b0 ""
b111 %"
b0 $"
b1111111111111001 q
b0 o
b1111111111111001 V
b1111111111111001 d
b1111111111111001 Z
b0 X
1^
b101101 `
1]
#1495000
0]
#1500000
0^
b101110 `
1]
#1505000
0]
#1510000
b101111 `
1]
#1515000
0]
#1520000
b110000 `
1]
#1525000
0]
#1530000
b110001 `
1]
#1535000
0]
#1540000
b110 T
b110 e
b110 !"
b101 |
b10010101 l
b111 z
b10001000 j
b1010 x
b1010101 h
0s
b1010 ~
b110 }
b101 {
b111 y
b1001 w
b10100100 m
b10010101 k
b10001000 i
b110001 g
b1010101 r
b100100 #"
b110001 ""
b11111111111111111111111111111010 %"
b11111111111111111111111111111001 $"
b110 q
b111 o
b1110000000000000110 V
b1110000000000000110 d
b110 Z
b111 X
1^
b110010 `
1]
#1545000
0]
#1550000
b111 |
b10001000 l
b1010 z
b1010101 j
0t
b101 T
b101 e
b101 !"
b1010101 i
b10001000 k
b10010101 m
b1010 y
b111 {
b101 }
0^
b110011 `
1]
#1555000
0]
#1560000
b110100 `
1]
#1565000
0]
#1570000
b110101 `
1]
#1575000
0]
#1580000
b110110 `
1]
#1585000
0]
#1590000
b1011 x
b1011 ~
1t
b1001000 h
b1001000 r
b100100 ""
b11111111111111111111111111111010 $"
b110 o
b1100000000000000110 V
b1100000000000000110 d
b110 X
1^
b110111 `
1]
#1595000
0]
#1600000
0^
b111000 `
1]
#1605000
0]
#1610000
b111001 `
1]
#1615000
0]
#1620000
b111010 `
1]
#1625000
0]
#1630000
b111011 `
1]
#1635000
0]
#1640000
b111 T
b111 e
b111 !"
b1100 x
b1100 ~
b111 }
b1010 {
b1011 y
b10001000 m
b1010101 k
b1001000 i
0v
b1100 |
b101010100 l
0u
b1100 z
b101010100 j
0t
b101010100 h
b101010100 r
b11000100 #"
b10010000 ""
b11111111111111111111111111110010 %"
b1100 $"
b1110 q
b1111111111110100 o
b11111111111101000000000000001110 V
b11111111111101000000000000001110 d
b1110 Z
b1111111111110100 X
1^
b111100 `
1]
#1645000
0]
#1650000
0^
b111101 `
1]
#1655000
0]
#1660000
b111110 `
1]
#1665000
0]
#1670000
b111111 `
1]
#1675000
0]
#1680000
b1000000 `
1]
#1685000
0]
#1690000
b1101 |
b1101 z
b1101 x
b1101 ~
b10110010 l
b10110010 j
b10110010 h
b10110010 r
b1001 #"
b10101001 ""
b11 %"
b1101 $"
b1111111111111101 q
b1111111111110011 o
b11111111111100111111111111111101 V
b11111111111100111111111111111101 d
b1111111111111101 Z
b1111111111110011 X
1^
b1000001 `
1]
#1695000
0]
#1700000
0^
b1000010 `
1]
#1705000
0]
#1710000
b1000011 `
1]
#1715000
0]
#1720000
b1000100 `
1]
#1725000
0]
#1730000
b1000101 `
1]
#1735000
0]
#1740000
b1110 |
b1110 z
b1110 x
b1110 ~
b11100010 l
b11100010 j
b11100010 h
b11100010 r
b11100001 #"
b1 ""
b11111111111111111111111111110001 %"
b11111111111111111111111111111111 $"
b1111 q
b1 o
b10000000000001111 V
b10000000000001111 d
b1111 Z
b1 X
1^
b1000110 `
1]
#1745000
0]
#1750000
0^
b1000111 `
1]
#1755000
0]
#1760000
b1001000 `
1]
#1765000
0]
#1770000
b1001001 `
1]
#1775000
0]
#1780000
b1001010 `
1]
#1785000
0]
#1790000
b1111 |
b1111 z
b1111 x
b1111 ~
b11011101 l
b11011101 j
b11011101 h
b11011101 r
b11000100 #"
b11001 ""
b11111111111111111111111111110010 %"
b101 $"
b1110 q
b1111111111111011 o
b11111111111110110000000000001110 V
b11111111111110110000000000001110 d
b1110 Z
b1111111111111011 X
1^
b1001011 `
1]
#1795000
0]
#1800000
0^
b1001100 `
1]
#1805000
0]
#1810000
b1001101 `
1]
#1815000
0]
#1820000
b1001110 `
1]
#1825000
0]
#1830000
b1001111 `
1]
#1835000
0]
#1840000
b10000 |
b10000 z
b10000 x
b10000 ~
b11000101 l
b11000101 j
b11000101 h
b11000101 r
b1 #"
b11000100 ""
b11111111111111111111111111111111 %"
b1110 $"
b1 q
b1111111111110010 o
b11111111111100100000000000000001 V
b11111111111100100000000000000001 d
b1 Z
b1111111111110010 X
1^
b1010000 `
1]
#1845000
0]
#1850000
0^
b1010001 `
1]
#1855000
0]
#1860000
b1010010 `
1]
#1865000
0]
#1870000
b1010011 `
1]
#1875000
0]
#1880000
b1010100 `
1]
#1885000
0]
#1890000
b10001 |
b10001 z
b10001 x
b10001 ~
b10101010 l
b10101010 j
b10101010 h
b10101010 r
b10101001 ""
b11111111111111111111111111110011 $"
b1101 o
b11010000000000000001 V
b11010000000000000001 d
b1101 X
1^
b1010101 `
1]
#1895000
0]
#1900000
0^
b1010110 `
1]
#1905000
0]
#1910000
b1010111 `
1]
#1915000
0]
#1920000
b1011000 `
1]
#1925000
0]
#1930000
b1011001 `
1]
#1935000
0]
#1940000
b10010 |
b10010 z
b10010 x
b10010 ~
b100000100 l
b100000100 j
b100000100 h
b100000100 r
b1000000 #"
b11000100 ""
b11111111111111111111111111111000 %"
b11111111111111111111111111110010 $"
b1000 q
b1110 o
b11100000000000001000 V
b11100000000000001000 d
b1000 Z
b1110 X
1^
b1011010 `
1]
#1945000
0]
#1950000
0^
b1011011 `
1]
#1955000
0]
#1960000
b1011100 `
1]
#1965000
0]
#1970000
b1011101 `
1]
#1975000
0]
#1980000
b1011110 `
1]
#1985000
0]
#1990000
b10011 |
b10011 z
b10011 x
b10011 ~
b1001001010 l
b1001001010 j
b1001001010 h
b1001001010 r
b11100001 #"
b101101001 ""
b11111111111111111111111111110001 %"
b11111111111111111111111111101101 $"
b1111 q
b10011 o
b100110000000000001111 V
b100110000000000001111 d
b1111 Z
b10011 X
1^
b1011111 `
1]
#1995000
0]
#2000000
0^
b1100000 `
1]
#2005000
0]
#2010000
b1100001 `
1]
#2015000
0]
#2020000
b1100010 `
1]
#2025000
0]
#2030000
b1100011 `
1]
#2035000
0]
#2040000
b1001 T
b1001 e
b1001 !"
b0 \
b0 f
b0 b
1[
b1100100 `
1]
#2045000
0]
#2050000
b1011 T
b1011 e
b1011 !"
b1 \
b1 f
b1 b
1]
#2055000
0]
#2060000
b1010 T
b1010 e
b1010 !"
b10 \
b10 f
b10 b
1]
#2065000
0]
#2070000
b111 T
b111 e
b111 !"
b11 \
b11 f
b11 b
1]
#2075000
0]
#2080000
0[
b100 b
1]
#2081000
b0 |
b0 z
b0 x
b0 ~
1_
#2085000
0]
#2090000
1v
b11111111111111111111111111111111 l
1u
b11111111111111111111111111111111 j
1t
b11111111111111111111111111111111 h
1s
b0 T
b0 e
b0 !"
b11111111111111111111111111111111 g
b11111111111111111111111111111111 i
b11111111111111111111111111111111 k
b11111111111111111111111111111111 m
b0 w
b0 y
b0 {
b0 }
1]
#2091000
b10 a
0_
