hardware/simulation/icarus/knn.vcd
$date
	Mon Nov 30 18:15:18 2020
$end
$version
	Icarus Verilog
$end
$timescale
	1ps
$end
$scope module iob_knn $end
$var wire 3 ! address [2:0] $end
$var wire 1 " clk $end
$var wire 32 # rdata [31:0] $end
$var wire 1 $ ready $end
$var wire 1 % rst $end
$var wire 1 & valid $end
$var wire 32 ' wdata [31:0] $end
$var wire 4 ( wstrb [3:0] $end
$var wire 8 ) DATA_OUT [7:0] $end
$var reg 16 * DATA_X1 [15:0] $end
$var reg 16 + DATA_X2 [15:0] $end
$var reg 16 , DATA_Y1 [15:0] $end
$var reg 16 - DATA_Y2 [15:0] $end
$var reg 1 . DONE $end
$var reg 1 / KNN_RESET $end
$var reg 2 0 SEL [1:0] $end
$var reg 32 1 rdata_int [31:0] $end
$var reg 1 2 ready_int $end
$var reg 1 3 rst_int $end
$var reg 1 4 write $end
$scope module sorter0 $end
$var wire 8 5 DATA_OUT [7:0] $end
$var wire 16 6 DATA_X1 [15:0] $end
$var wire 16 7 DATA_X2 [15:0] $end
$var wire 16 8 DATA_Y1 [15:0] $end
$var wire 16 9 DATA_Y2 [15:0] $end
$var wire 1 . DONE $end
$var wire 2 : SEL [1:0] $end
$var wire 1 " clk $end
$var wire 1 & ready $end
$var wire 1 3 rst $end
$var reg 32 ; DATA0_OUT_INT [31:0] $end
$var reg 32 < DATA1_IN_INT [31:0] $end
$var reg 32 = DATA1_OUT_INT [31:0] $end
$var reg 32 > DATA2_IN_INT [31:0] $end
$var reg 32 ? DATA2_OUT_INT [31:0] $end
$var reg 32 @ DATA3_IN_INT [31:0] $end
$var reg 32 A DATA3_OUT_INT [31:0] $end
$var reg 32 B DIST [31:0] $end
$var reg 1 C c0 $end
$var reg 1 D c1 $end
$var reg 1 E c2 $end
$var reg 1 F c3 $end
$var reg 8 G idx0_out [7:0] $end
$var reg 8 H idx1_cnt_int [7:0] $end
$var reg 8 I idx1_out [7:0] $end
$var reg 8 J idx2_cnt_int [7:0] $end
$var reg 8 K idx2_out [7:0] $end
$var reg 8 L idx3_cnt_int [7:0] $end
$var reg 8 M idx3_out [7:0] $end
$var reg 8 N idx_cnt [7:0] $end
$var reg 8 O idx_out [7:0] $end
$var reg 32 P sqr1 [31:0] $end
$var reg 32 Q sqr2 [31:0] $end
$var reg 32 R sub1 [31:0] $end
$var reg 32 S sub2 [31:0] $end
$upscope $end
$upscope $end
$scope module knn_tb $end
$var wire 8 T DATA_OUT [7:0] $end
$var reg 16 U DATA_X1 [15:0] $end
$var reg 16 V DATA_X2 [15:0] $end
$var reg 16 W DATA_Y1 [15:0] $end
$var reg 16 X DATA_Y2 [15:0] $end
$var reg 1 Y DONE $end
$var reg 2 Z SEL [1:0] $end
$var reg 1 [ clk $end
$var reg 1 \ ready $end
$var reg 1 ] rst $end
$var integer 32 ^ i [31:0] $end
$var integer 32 _ j [31:0] $end
$var integer 32 ` k [31:0] $end
$scope module sorter0 $end
$var wire 8 a DATA_OUT [7:0] $end
$var wire 16 b DATA_X1 [15:0] $end
$var wire 16 c DATA_X2 [15:0] $end
$var wire 16 d DATA_Y1 [15:0] $end
$var wire 16 e DATA_Y2 [15:0] $end
$var wire 1 Y DONE $end
$var wire 2 f SEL [1:0] $end
$var wire 1 [ clk $end
$var wire 1 \ ready $end
$var wire 1 ] rst $end
$var reg 32 g DATA0_OUT_INT [31:0] $end
$var reg 32 h DATA1_IN_INT [31:0] $end
$var reg 32 i DATA1_OUT_INT [31:0] $end
$var reg 32 j DATA2_IN_INT [31:0] $end
$var reg 32 k DATA2_OUT_INT [31:0] $end
$var reg 32 l DATA3_IN_INT [31:0] $end
$var reg 32 m DATA3_OUT_INT [31:0] $end
$var reg 32 n DIST [31:0] $end
$var reg 1 o c0 $end
$var reg 1 p c1 $end
$var reg 1 q c2 $end
$var reg 1 r c3 $end
$var reg 8 s idx0_out [7:0] $end
$var reg 8 t idx1_cnt_int [7:0] $end
$var reg 8 u idx1_out [7:0] $end
$var reg 8 v idx2_cnt_int [7:0] $end
$var reg 8 w idx2_out [7:0] $end
$var reg 8 x idx3_cnt_int [7:0] $end
$var reg 8 y idx3_out [7:0] $end
$var reg 8 z idx_cnt [7:0] $end
$var reg 8 { idx_out [7:0] $end
$var reg 32 | sqr1 [31:0] $end
$var reg 32 } sqr2 [31:0] $end
$var reg 32 ~ sub1 [31:0] $end
$var reg 32 !" sub2 [31:0] $end
$upscope $end
$upscope $end
$enddefinitions $end
#0
$dumpvars
bx !"
bx ~
bx }
bx |
bx {
bx z
bx y
bx x
bx w
bx v
bx u
bx t
bx s
0r
0q
0p
0o
bx n
bx m
bx l
bx k
bx j
bx i
bx h
bx g
b0 f
bx e
b0 d
bx c
b0 b
bx a
bx `
bx _
bx ^
0]
0\
1[
b0 Z
0Y
bx X
b0 W
bx V
b0 U
bx T
bx S
bx R
bx Q
bx P
bx O
bx N
bx M
bx L
bx K
bx J
bx I
bx H
bx G
xF
xE
xD
xC
bx B
bx A
bx @
bx ?
bx >
bx =
bx <
bx ;
bx :
bx 9
bx 8
bx 7
bx 6
bx 5
x4
x3
x2
b0 1
bx 0
x/
x.
bx -
bx ,
bx +
bx *
bx )
bz (
bz '
z&
z%
x$
b0 #
z"
bz !
$end
#5000
0[
#7000
1]
#10000
b0 T
b0 a
b0 {
b0 x
b0 v
b0 t
b11111111111111111111111111111111 g
b11111111111111111111111111111111 i
b11111111111111111111111111111111 k
b11111111111111111111111111111111 m
b0 s
b0 u
b0 w
b0 y
b0 z
1[
#15000
0[
#17000
b1 ^
b0 _
0]
#20000
b10 ^
1[
#25000
0[
#30000
b11 ^
1[
#35000
0[
#40000
b100 ^
1[
#45000
0[
#50000
1r
b11111111111111111111111111111111 l
1q
b11111111111111111111111111111111 j
1p
b11111111111111111111111111111111 h
1o
b110101001 n
b101101001 }
b1000000 |
b10011 !"
b11111111111111111111111111111000 ~
b1111111111101101 X
b1111111111101101 e
b1000 V
b1000 c
1\
b101 ^
1[
#55000
0[
#60000
0\
b110 ^
1[
#65000
0[
#70000
b111 ^
1[
#75000
0[
#80000
b1000 ^
1[
#85000
0[
#90000
b1001 ^
1[
#95000
0[
#100000
b1 t
b110111010 h
0o
b1 z
b110101001 g
b110111010 n
b1010001 }
b101101001 |
b1001 !"
b10011 ~
b1111111111110111 X
b1111111111110111 e
b1111111111101101 V
b1111111111101101 c
1\
b1010 ^
1[
#105000
0[
#110000
b10 v
b110111010 j
0p
b10 t
b110111010 i
b1 u
b10 z
0\
b1011 ^
1[
#115000
0[
#120000
b1100 ^
1[
#125000
0[
#130000
b1101 ^
1[
#135000
0[
#140000
b1110 ^
1[
#145000
0[
#150000
b1001000010 j
b1001000010 h
b1001000010 n
b100100001 }
b100100001 |
b11111111111111111111111111101111 !"
b11111111111111111111111111101111 ~
b10001 X
b10001 e
b10001 V
b10001 c
1\
b1111 ^
1[
#155000
0[
#160000
0\
b10000 ^
1[
#165000
0[
#170000
b10001 ^
1[
#175000
0[
#180000
b10010 ^
1[
#185000
0[
#190000
b10011 ^
1[
#195000
0[
#200000
b10 x
b1001000010 l
b11 z
b10 w
b1001000010 k
b1 v
b110111010 j
1p
b0 t
b110101001 h
1o
b100111101 n
b11000100 }
b1111001 |
b1110 !"
b1011 ~
b1111111111110010 X
b1111111111110010 e
b1111111111110101 V
b1111111111110101 c
1\
b10100 ^
1[
#205000
0[
#210000
b11 T
b11 a
b11 {
b1 x
b110111010 l
b0 v
b110101001 j
b100 t
b100111101 h
0o
b100111101 g
b110101001 i
b110111010 k
b1001000010 m
b11 s
b0 u
b1 w
b10 y
b100 z
0\
b10101 ^
1[
#215000
0[
#220000
b10110 ^
1[
#225000
0[
#230000
b10111 ^
1[
#235000
0[
#240000
b11000 ^
1[
#245000
0[
#250000
b11 t
1o
b1010010 n
b1010001 }
b1 |
b11111111111111111111111111110111 !"
b11111111111111111111111111111111 ~
b1001 X
b1001 e
b1 V
b1 c
1\
b11001 ^
1[
#255000
0[
#260000
0\
b11010 ^
1[
#265000
0[
#270000
b11011 ^
1[
#275000
0[
#280000
b11100 ^
1[
#285000
0[
#290000
b11101 ^
1[
#295000
0[
#300000
b100 T
b100 a
b100 {
b101 z
b1 y
b0 w
b11 u
b100 s
b110111010 m
b110101001 k
b100111101 i
b1010010 g
0r
b101 x
b1001100101 l
0q
b101 v
b1001100101 j
0p
b101 t
b1001100101 h
0o
b1001100101 n
b100100001 }
b101000100 |
b11111111111111111111111111101111 !"
b11111111111111111111111111101110 ~
b10001 X
b10001 e
b10010 V
b10010 c
1\
b11110 ^
1[
#305000
0[
#310000
b110 x
b110 v
b110 t
b110 z
0\
b11111 ^
1[
#315000
0[
#320000
b100000 ^
1[
#325000
0[
#330000
b100001 ^
1[
#335000
0[
#340000
b100010 ^
1[
#345000
0[
#350000
1r
b0 x
b110101001 l
1q
b11 v
b100111101 j
1p
b11100001 h
b11100001 n
b10010000 }
b1010001 |
b11111111111111111111111111110100 !"
b11111111111111111111111111110111 ~
b1100 X
b1100 e
b1001 V
b1001 c
1\
b100011 ^
1[
#355000
0[
#360000
0\
b100100 ^
1[
#365000
0[
#370000
b100101 ^
1[
#375000
0[
#380000
b100110 ^
1[
#385000
0[
#390000
b100111 ^
1[
#395000
0[
#400000
b11 x
b100111101 l
b110 v
b11100001 j
b111 t
b111 z
b0 y
b11 w
b110 u
b110101001 m
b100111101 k
b11100001 i
b10110101 h
b10110101 n
b1100100 }
b1010 !"
b1111111111110110 X
b1111111111110110 e
1\
b101000 ^
1[
#405000
0[
#410000
b110 x
b11100001 l
b1000 v
b10110101 j
0p
b1000 t
b10110101 i
b11100001 k
b100111101 m
b111 u
b110 w
b11 y
b1000 z
0\
b101001 ^
1[
#415000
0[
#420000
b101010 ^
1[
#425000
0[
#430000
b101011 ^
1[
#435000
0[
#440000
b101100 ^
1[
#445000
0[
#450000
0r
b1000 x
b1000101101 l
0q
b1000101101 j
b1000101101 h
b1000101101 n
b11000100 }
b101101001 |
b1110 !"
b10011 ~
b1111111111110010 X
b1111111111110010 e
b1111111111101101 V
b1111111111101101 c
1\
b101101 ^
1[
#455000
0[
#460000
0\
b101110 ^
1[
#465000
0[
#470000
b101111 ^
1[
#475000
0[
#480000
b110000 ^
1[
#485000
0[
#490000
b110001 ^
1[
#495000
0[
#500000
b1001 z
1r
b110 x
b11100001 l
1q
b111 v
b10110101 j
1p
b100 t
b1010010 h
1o
b11010 n
b1 }
b11001 |
b1 !"
b11111111111111111111111111111011 ~
b1111111111111111 X
b1111111111111111 e
b101 V
b101 c
1\
b110010 ^
1[
#505000
0[
#510000
b1001 T
b1001 a
b1001 {
b111 x
b10110101 l
b100 v
b1010010 j
b1010 t
b11010 h
0o
b11010 g
b1010010 i
b10110101 k
b11100001 m
b1001 s
b100 u
b111 w
b110 y
b1010 z
0\
b110011 ^
1[
#515000
0[
#520000
b110100 ^
1[
#525000
0[
#530000
b110101 ^
1[
#535000
0[
#540000
b110110 ^
1[
#545000
0[
#550000
0r
b1010 x
b101101101 l
0q
b1010 v
b101101101 j
0p
b101101101 h
b101101101 n
b101101001 }
b100 |
b11111111111111111111111111101101 !"
b10 ~
b10011 X
b10011 e
b1111111111111110 V
b1111111111111110 c
1\
b110111 ^
1[
#555000
0[
#560000
0\
b111000 ^
1[
#565000
0[
#570000
b111001 ^
1[
#575000
0[
#580000
b111010 ^
1[
#585000
0[
#590000
b111011 ^
1[
#595000
0[
#600000
b1011 t
b1011 z
1r
b111 x
b10110101 l
1q
b100 v
b1010010 j
1p
b1001000 h
b1001000 n
b100100 }
b100100 |
b110 !"
b11111111111111111111111111111010 ~
b1111111111111010 X
b1111111111111010 e
b110 V
b110 c
1\
b111100 ^
1[
#605000
0[
#610000
b100 x
b1010010 l
b1100 v
b1001000 j
0p
b1100 t
b1001000 i
b1010010 k
b10110101 m
b1011 u
b100 w
b111 y
b1100 z
0\
b111101 ^
1[
#615000
0[
#620000
b111110 ^
1[
#625000
0[
#630000
b111111 ^
1[
#635000
0[
#640000
b1000000 ^
1[
#645000
0[
#650000
b1001001 j
b1001001 h
b1001001 n
b1001 }
b1000000 |
b11 !"
b1000 ~
b1111111111111101 X
b1111111111111101 e
b1111111111111000 V
b1111111111111000 c
1\
b1000001 ^
1[
#655000
0[
#660000
0\
b1000010 ^
1[
#665000
0[
#670000
b1000011 ^
1[
#675000
0[
#680000
b1000100 ^
1[
#685000
0[
#690000
b1000101 ^
1[
#695000
0[
#700000
b1100 x
b1001001 l
b1101 z
b100 y
b1100 w
b1010010 m
b1001001 k
b1011 v
b1001000 j
1p
b1001 t
b11010 h
1o
b11001 n
b10000 |
b11111111111111111111111111111100 ~
b100 V
b100 c
1\
b1000110 ^
1[
#705000
0[
#710000
b1101 T
b1101 a
b1101 {
b1011 x
b1001000 l
b1001 v
b11010 j
b1110 t
b11001 h
0o
b11001 g
b11010 i
b1001000 k
b1001001 m
b1101 s
b1001 u
b1011 w
b1100 y
b1110 z
0\
b1000111 ^
1[
#715000
0[
#720000
b1001000 ^
1[
#725000
0[
#730000
b1001001 ^
1[
#735000
0[
#740000
b1001010 ^
1[
#745000
0[
#750000
0r
b1110 x
b1100010 l
0q
b1110 v
b1100010 j
0p
b1100010 h
b1100010 n
b110001 }
b110001 |
b111 !"
b111 ~
b1111111111111001 X
b1111111111111001 e
b1111111111111001 V
b1111111111111001 c
1\
b1001011 ^
1[
#755000
0[
#760000
0\
b1001100 ^
1[
#765000
0[
#770000
b1001101 ^
1[
#775000
0[
#780000
b1001110 ^
1[
#785000
0[
#790000
b1001111 ^
1[
#795000
0[
#800000
b1111 x
b1111 v
b1111 t
b1111 z
b100001101 l
b100001101 j
b100001101 h
b100001101 n
b1100100 }
b10101001 |
b11111111111111111111111111110110 !"
b1101 ~
b1010 X
b1010 e
b1111111111110011 V
b1111111111110011 c
1\
b1010000 ^
1[
#805000
0[
#810000
b10000 x
b10000 v
b10000 t
b10000 z
0\
b1010001 ^
1[
#815000
0[
#820000
b1010010 ^
1[
#825000
0[
#830000
b1010011 ^
1[
#835000
0[
#840000
b1010100 ^
1[
#845000
0[
#850000
b101000000 l
b101000000 j
b101000000 h
b101000000 n
b100000000 }
b1000000 |
b11111111111111111111111111110000 !"
b1000 ~
b10000 X
b10000 e
b1111111111111000 V
b1111111111111000 c
1\
b1010101 ^
1[
#855000
0[
#860000
0\
b1010110 ^
1[
#865000
0[
#870000
b1010111 ^
1[
#875000
0[
#880000
b1011000 ^
1[
#885000
0[
#890000
b1011001 ^
1[
#895000
0[
#900000
b10001 x
b10001 v
b10001 t
b10001 z
b110100101 l
b110100101 j
b110100101 h
b110100101 n
b11100001 }
b11000100 |
b1111 !"
b11111111111111111111111111110010 ~
b1111111111110001 X
b1111111111110001 e
b1110 V
b1110 c
1\
b1011010 ^
1[
#905000
0[
#910000
b10010 x
b10010 v
b10010 t
b10010 z
0\
b1011011 ^
1[
#915000
0[
#920000
b1011100 ^
1[
#925000
0[
#930000
b1011101 ^
1[
#935000
0[
#940000
b1011110 ^
1[
#945000
0[
#950000
b11011101 l
b11011101 j
b11011101 h
b11011101 n
b11001 }
b101 !"
b1110 ~
b1111111111111011 X
b1111111111111011 e
b1111111111110010 V
b1111111111110010 c
1\
b1011111 ^
1[
#955000
0[
#960000
0\
b1100000 ^
1[
#965000
0[
#970000
b1100001 ^
1[
#975000
0[
#980000
b1100010 ^
1[
#985000
0[
#990000
b1100011 ^
1[
#995000
0[
#1000000
1r
b1011 x
b11111111111111111111111111111111 l
1q
b1001 v
b11111111111111111111111111111111 j
1p
b1101 t
b11111111111111111111111111111111 h
1o
b0 z
b11111111111111111111111111111111 m
b11111111111111111111111111111111 k
b11111111111111111111111111111111 i
b11111111111111111111111111111111 g
b0 `
1Y
b1100100 ^
1[
#1005000
0[
#1010000
b1001 T
b1001 a
b1001 {
b1 Z
b1 f
b1 `
1[
#1015000
0[
#1020000
b1011 T
b1011 a
b1011 {
b10 Z
b10 f
b10 `
1[
#1025000
0[
#1030000
b1100 T
b1100 a
b1100 {
b11 Z
b11 f
b11 `
1[
#1035000
0[
#1040000
b1101 T
b1101 a
b1101 {
b0 Z
b0 f
b100 `
1[
#1041000
b1 ^
b1 _
0Y
#1045000
0[
#1050000
b10 ^
1[
#1055000
0[
#1060000
b11 ^
1[
#1065000
0[
#1070000
b100 ^
1[
#1075000
0[
#1080000
b110001010 n
b10101001 }
b11100001 |
b1101 !"
b1111 ~
b1111111111110011 X
b1111111111110011 e
b1111111111110001 V
b1111111111110001 c
1\
b101 ^
1[
#1085000
0[
#1090000
0\
b110 ^
1[
#1095000
0[
#1100000
b111 ^
1[
#1105000
0[
#1110000
b1000 ^
1[
#1115000
0[
#1120000
b1001 ^
1[
#1125000
0[
#1130000
b0 T
b0 a
b0 {
b1001 x
b1101 v
b0 t
b110001010 h
b110001010 g
b0 s
b1101 u
b1001 w
b1011 y
b1 z
b101011010 n
b1111001 }
b1011 !"
b11111111111111111111111111110001 ~
b1111111111110101 X
b1111111111110101 e
b1111 V
b1111 c
1\
b1010 ^
1[
#1135000
0[
#1140000
b1 T
b1 a
b1 {
b1101 x
b0 v
b110001010 j
b10 t
b101011010 h
0o
b10 z
b1001 y
b1101 w
b0 u
b1 s
b110001010 i
b101011010 g
0\
b1011 ^
1[
#1145000
0[
#1150000
b1100 ^
1[
#1155000
0[
#1160000
b1101 ^
1[
#1165000
0[
#1170000
b1110 ^
1[
#1175000
0[
#1180000
b10 v
b1000001000 j
0p
b1000001000 h
b1000001000 n
b11000100 }
b101000100 |
b1110 !"
b10010 ~
b1111111111110010 X
b1111111111110010 e
b1111111111101110 V
b1111111111101110 c
1\
b1111 ^
1[
#1185000
0[
#1190000
0\
b10000 ^
1[
#1195000
0[
#1200000
b10001 ^
1[
#1205000
0[
#1210000
b10010 ^
1[
#1215000
0[
#1220000
b10011 ^
1[
#1225000
0[
#1230000
b10 x
b1000001000 l
b1000001000 k
b10 w
b1101 y
b11 z
b0 v
b110001010 j
1p
b1 t
b101011010 h
1o
b100100010 n
b100100001 }
b1 |
b10001 !"
b11111111111111111111111111111111 ~
b1111111111101111 X
b1111111111101111 e
b1 V
b1 c
1\
b10100 ^
1[
#1235000
0[
#1240000
b11 T
b11 a
b11 {
b0 x
b110001010 l
b1 v
b101011010 j
b100 t
b100100010 h
0o
b100 z
b10 y
b0 w
b1 u
b11 s
b1000001000 m
b110001010 k
b101011010 i
b100100010 g
0\
b10101 ^
1[
#1245000
0[
#1250000
b10110 ^
1[
#1255000
0[
#1260000
b10111 ^
1[
#1265000
0[
#1270000
b11000 ^
1[
#1275000
0[
#1280000
b11 t
1o
b10010101 n
b1100100 }
b110001 |
b11111111111111111111111111110110 !"
b11111111111111111111111111111001 ~
b1010 X
b1010 e
b111 V
b111 c
1\
b11001 ^
1[
#1285000
0[
#1290000
0\
b11010 ^
1[
#1295000
0[
#1300000
b11011 ^
1[
#1305000
0[
#1310000
b11100 ^
1[
#1315000
0[
#1320000
b11101 ^
1[
#1325000
0[
#1330000
b100 T
b100 a
b100 {
b1 x
b101011010 l
b11 v
b100100010 j
b101 t
b10100100 h
0o
b10010101 g
b100100010 i
b101011010 k
b110001010 m
b100 s
b11 u
b1 w
b0 y
b101 z
b10100100 n
b1000000 }
b1100100 |
b1000 !"
b1010 ~
b1111111111111000 X
b1111111111111000 e
b1111111111110110 V
b1111111111110110 c
1\
b11110 ^
1[
#1335000
0[
#1340000
b11 x
b100100010 l
b110 v
b10100100 j
0p
b110 t
b110 z
b1 y
b11 w
b101 u
b101011010 m
b100100010 k
b10100100 i
0\
b11111 ^
1[
#1345000
0[
#1350000
b100000 ^
1[
#1355000
0[
#1360000
b100001 ^
1[
#1365000
0[
#1370000
b100010 ^
1[
#1375000
0[
#1380000
b101 v
1p
b100 t
b10010101 h
1o
b10001000 n
b1100100 }
b100100 |
b11111111111111111111111111110110 !"
b11111111111111111111111111111010 ~
b1010 X
b1010 e
b110 V
b110 c
1\
b100011 ^
1[
#1385000
0[
#1390000
0\
b100100 ^
1[
#1395000
0[
#1400000
b100101 ^
1[
#1405000
0[
#1410000
b100110 ^
1[
#1415000
0[
#1420000
b100111 ^
1[
#1425000
0[
#1430000
b110 T
b110 a
b110 {
b10001000 g
b10010101 i
b10100100 k
b100100010 m
b110 s
b100 u
b101 w
b11 y
b111 z
0r
b111 x
b110110001 l
0q
b111 v
b110110001 j
0p
b111 t
b110110001 h
0o
b110110001 n
b10010000 }
b100100001 |
b1100 !"
b11111111111111111111111111101111 ~
b1111111111110100 X
b1111111111110100 e
b10001 V
b10001 c
1\
b101000 ^
1[
#1435000
0[
#1440000
b1000 x
b1000 v
b1000 t
b1000 z
0\
b101001 ^
1[
#1445000
0[
#1450000
b101010 ^
1[
#1455000
0[
#1460000
b101011 ^
1[
#1465000
0[
#1470000
b101100 ^
1[
#1475000
0[
#1480000
1r
b101 x
b10100100 l
1q
b100 v
b10010101 j
1p
b110 t
b10001000 h
1o
b110001 n
b110001 }
b0 |
b111 !"
b0 ~
b1111111111111001 X
b1111111111111001 e
b0 V
b0 c
1\
b101101 ^
1[
#1485000
0[
#1490000
0\
b101110 ^
1[
#1495000
0[
#1500000
b101111 ^
1[
#1505000
0[
#1510000
b110000 ^
1[
#1515000
0[
#1520000
b110001 ^
1[
#1525000
0[
#1530000
b1000 T
b1000 a
b1000 {
b100 x
b10010101 l
b110 v
b10001000 j
b1001 t
b1010101 h
0o
b110001 g
b10001000 i
b10010101 k
b10100100 m
b1000 s
b110 u
b100 w
b101 y
b1001 z
b1010101 n
b100100 }
b110001 |
b11111111111111111111111111111010 !"
b11111111111111111111111111111001 ~
b110 X
b110 e
b111 V
b111 c
1\
b110010 ^
1[
#1535000
0[
#1540000
b110 x
b10001000 l
b1010 v
b1010101 j
0p
b1010 t
b1010 z
b100 y
b110 w
b1001 u
b10010101 m
b10001000 k
b1010101 i
0\
b110011 ^
1[
#1545000
0[
#1550000
b110100 ^
1[
#1555000
0[
#1560000
b110101 ^
1[
#1565000
0[
#1570000
b110110 ^
1[
#1575000
0[
#1580000
b1001 v
1p
b1001000 h
b1001000 n
b100100 |
b11111111111111111111111111111010 ~
b110 V
b110 c
1\
b110111 ^
1[
#1585000
0[
#1590000
0\
b111000 ^
1[
#1595000
0[
#1600000
b111001 ^
1[
#1605000
0[
#1610000
b111010 ^
1[
#1615000
0[
#1620000
b111011 ^
1[
#1625000
0[
#1630000
b1011 t
b1001000 i
b1010101 k
b10001000 m
b1010 u
b1001 w
b110 y
b1011 z
0r
b1011 x
b101010100 l
0q
b1011 v
b101010100 j
0p
b101010100 h
b101010100 n
b11000100 }
b10010000 |
b11111111111111111111111111110010 !"
b1100 ~
b1110 X
b1110 e
b1111111111110100 V
b1111111111110100 c
1\
b111100 ^
1[
#1635000
0[
#1640000
b1100 x
b1100 v
b1100 t
b1100 z
0\
b111101 ^
1[
#1645000
0[
#1650000
b111110 ^
1[
#1655000
0[
#1660000
b111111 ^
1[
#1665000
0[
#1670000
b1000000 ^
1[
#1675000
0[
#1680000
b10110010 l
b10110010 j
b10110010 h
b10110010 n
b1001 }
b10101001 |
b11 !"
b1101 ~
b1111111111111101 X
b1111111111111101 e
b1111111111110011 V
b1111111111110011 c
1\
b1000001 ^
1[
#1685000
0[
#1690000
0\
b1000010 ^
1[
#1695000
0[
#1700000
b1000011 ^
1[
#1705000
0[
#1710000
b1000100 ^
1[
#1715000
0[
#1720000
b1000101 ^
1[
#1725000
0[
#1730000
b1101 x
b1101 v
b1101 t
b1101 z
b11100010 l
b11100010 j
b11100010 h
b11100010 n
b11100001 }
b1 |
b11111111111111111111111111110001 !"
b11111111111111111111111111111111 ~
b1111 X
b1111 e
b1 V
b1 c
1\
b1000110 ^
1[
#1735000
0[
#1740000
b1110 x
b1110 v
b1110 t
b1110 z
0\
b1000111 ^
1[
#1745000
0[
#1750000
b1001000 ^
1[
#1755000
0[
#1760000
b1001001 ^
1[
#1765000
0[
#1770000
b1001010 ^
1[
#1775000
0[
#1780000
b11011101 l
b11011101 j
b11011101 h
b11011101 n
b11000100 }
b11001 |
b11111111111111111111111111110010 !"
b101 ~
b1110 X
b1110 e
b1111111111111011 V
b1111111111111011 c
1\
b1001011 ^
1[
#1785000
0[
#1790000
0\
b1001100 ^
1[
#1795000
0[
#1800000
b1001101 ^
1[
#1805000
0[
#1810000
b1001110 ^
1[
#1815000
0[
#1820000
b1001111 ^
1[
#1825000
0[
#1830000
b1111 x
b1111 v
b1111 t
b1111 z
b11000101 l
b11000101 j
b11000101 h
b11000101 n
b1 }
b11000100 |
b11111111111111111111111111111111 !"
b1110 ~
b1 X
b1 e
b1111111111110010 V
b1111111111110010 c
1\
b1010000 ^
1[
#1835000
0[
#1840000
b10000 x
b10000 v
b10000 t
b10000 z
0\
b1010001 ^
1[
#1845000
0[
#1850000
b1010010 ^
1[
#1855000
0[
#1860000
b1010011 ^
1[
#1865000
0[
#1870000
b1010100 ^
1[
#1875000
0[
#1880000
b10101010 l
b10101010 j
b10101010 h
b10101010 n
b10101001 |
b11111111111111111111111111110011 ~
b1101 V
b1101 c
1\
b1010101 ^
1[
#1885000
0[
#1890000
0\
b1010110 ^
1[
#1895000
0[
#1900000
b1010111 ^
1[
#1905000
0[
#1910000
b1011000 ^
1[
#1915000
0[
#1920000
b1011001 ^
1[
#1925000
0[
#1930000
b10001 x
b10001 v
b10001 t
b10001 z
b100000100 l
b100000100 j
b100000100 h
b100000100 n
b1000000 }
b11000100 |
b11111111111111111111111111111000 !"
b11111111111111111111111111110010 ~
b1000 X
b1000 e
b1110 V
b1110 c
1\
b1011010 ^
1[
#1935000
0[
#1940000
b10010 x
b10010 v
b10010 t
b10010 z
0\
b1011011 ^
1[
#1945000
0[
#1950000
b1011100 ^
1[
#1955000
0[
#1960000
b1011101 ^
1[
#1965000
0[
#1970000
b1011110 ^
1[
#1975000
0[
#1980000
b1001001010 l
b1001001010 j
b1001001010 h
b1001001010 n
b11100001 }
b101101001 |
b11111111111111111111111111110001 !"
b11111111111111111111111111101101 ~
b1111 X
b1111 e
b10011 V
b10011 c
1\
b1011111 ^
1[
#1985000
0[
#1990000
0\
b1100000 ^
1[
#1995000
0[
#2000000
b1100001 ^
1[
#2005000
0[
#2010000
b1100010 ^
1[
#2015000
0[
#2020000
b1100011 ^
1[
#2025000
0[
#2030000
1r
b1001 x
b11111111111111111111111111111111 l
1q
b1010 v
b11111111111111111111111111111111 j
1p
b1000 t
b11111111111111111111111111111111 h
1o
b11111111111111111111111111111111 g
b11111111111111111111111111111111 i
b11111111111111111111111111111111 k
b11111111111111111111111111111111 m
b0 z
b0 `
1Y
b1100100 ^
1[
#2035000
0[
#2040000
b1010 T
b1010 a
b1010 {
b1 Z
b1 f
b1 `
1[
#2045000
0[
#2050000
b1001 T
b1001 a
b1001 {
b10 Z
b10 f
b10 `
1[
#2055000
0[
#2060000
b110 T
b110 a
b110 {
b11 Z
b11 f
b11 `
1[
#2065000
0[
#2070000
b1000 T
b1000 a
b1000 {
b0 Z
b0 f
b100 `
1[
#2071000
b10 _
0Y
