hardware/simulation/icarus/knn.vcd
$date
	Sat Nov 28 19:06:49 2020
$end
$version
	Icarus Verilog
$end
$timescale
	1ps
$end
$scope module iob_knn $end
$var wire 3 ! address [2:0] $end
$var wire 1 " clk $end
$var wire 32 # rdata [31:0] $end
$var wire 1 $ ready $end
$var wire 1 % rst $end
$var wire 1 & valid $end
$var wire 32 ' wdata [31:0] $end
$var wire 4 ( wstrb [3:0] $end
$var wire 32 ) DATA_OUT [31:0] $end
$var reg 32 * DATA_1 [31:0] $end
$var reg 32 + DATA_2 [31:0] $end
$var reg 16 , DATA_X1 [15:0] $end
$var reg 16 - DATA_X2 [15:0] $end
$var reg 16 . DATA_Y1 [15:0] $end
$var reg 16 / DATA_Y2 [15:0] $end
$var reg 1 0 KNN_ENABLE $end
$var reg 1 1 KNN_RESET $end
$var reg 32 2 rdata_int [31:0] $end
$var reg 1 3 ready_int $end
$var reg 1 4 rst_int $end
$var reg 1 5 write $end
$scope module d0 $end
$var wire 32 6 DATA_OUT [31:0] $end
$var wire 16 7 DATA_X1 [15:0] $end
$var wire 16 8 DATA_X2 [15:0] $end
$var wire 16 9 DATA_Y1 [15:0] $end
$var wire 16 : DATA_Y2 [15:0] $end
$var reg 32 ; result [31:0] $end
$var reg 32 < sqr1 [31:0] $end
$var reg 32 = sqr2 [31:0] $end
$var reg 32 > sub1 [31:0] $end
$var reg 32 ? sub2 [31:0] $end
$upscope $end
$upscope $end
$scope module knn_core $end
$var wire 32 @ KNN_DATA_IN [31:0] $end
$var wire 32 A KNN_DATA_OUT [31:0] $end
$var wire 1 B KNN_ENABLE $end
$var wire 1 C clk $end
$var wire 1 D rst $end
$upscope $end
$scope module knn_tb $end
$var wire 8 E DATA3_OUT [7:0] $end
$var wire 8 F DATA2_OUT [7:0] $end
$var wire 8 G DATA1_OUT [7:0] $end
$var wire 8 H DATA0_OUT [7:0] $end
$var reg 32 I DATA_IN [31:0] $end
$var reg 1 J clk $end
$var reg 1 K ready $end
$var reg 1 L rst $end
$var integer 32 M i [31:0] $end
$scope module sorter0 $end
$var wire 8 N DATA0_OUT [7:0] $end
$var wire 8 O DATA1_OUT [7:0] $end
$var wire 8 P DATA2_OUT [7:0] $end
$var wire 8 Q DATA3_OUT [7:0] $end
$var wire 32 R DATA_IN [31:0] $end
$var wire 1 J clk $end
$var wire 1 K ready $end
$var wire 1 L rst $end
$var reg 32 S DATA0_OUT_INT [31:0] $end
$var reg 32 T DATA1_IN_INT [31:0] $end
$var reg 32 U DATA1_OUT_INT [31:0] $end
$var reg 32 V DATA2_IN_INT [31:0] $end
$var reg 32 W DATA2_OUT_INT [31:0] $end
$var reg 32 X DATA3_IN_INT [31:0] $end
$var reg 32 Y DATA3_OUT_INT [31:0] $end
$var reg 1 Z c0 $end
$var reg 1 [ c1 $end
$var reg 1 \ c2 $end
$var reg 1 ] c3 $end
$var reg 8 ^ idx0_out [7:0] $end
$var reg 8 _ idx1_cnt_int [7:0] $end
$var reg 8 ` idx1_out [7:0] $end
$var reg 8 a idx2_cnt_int [7:0] $end
$var reg 8 b idx2_out [7:0] $end
$var reg 8 c idx3_cnt_int [7:0] $end
$var reg 8 d idx3_out [7:0] $end
$var reg 8 e idx_cnt [7:0] $end
$upscope $end
$upscope $end
$enddefinitions $end
#0
$dumpvars
bx e
bx d
bx c
bx b
bx a
bx `
bx _
bx ^
0]
0\
0[
0Z
bx Y
b0 X
bx W
b0 V
bx U
b0 T
bx S
b0 R
bx Q
bx P
bx O
bx N
bx M
0L
0K
1J
b0 I
bx H
bx G
bx F
bx E
zD
zC
zB
bz A
bz @
bx ?
bx >
bx =
bx <
bx ;
bx :
bx 9
bx 8
bx 7
bx 6
x5
x4
x3
b0 2
x1
x0
bx /
bx .
bx -
bx ,
bx +
bx *
bx )
bz (
bz '
z&
z%
x$
b0 #
z"
bz !
$end
#5000
0J
#7000
b0 c
b0 a
b0 _
b0 e
1L
#10000
1]
b11111111 c
b11111111111111111111111111111111 X
1\
b11111111 a
b11111111111111111111111111111111 V
1[
b11111111 _
b11111111111111111111111111111111 T
1Z
b11111111111111111111111111111111 S
b11111111111111111111111111111111 U
b11111111111111111111111111111111 W
b11111111111111111111111111111111 Y
b11111111 H
b11111111 N
b11111111 ^
b11111111 G
b11111111 O
b11111111 `
b11111111 F
b11111111 P
b11111111 b
b11111111 E
b11111111 Q
b11111111 d
1J
#15000
0J
#17000
b1 M
0L
#20000
1J
#21000
b10 M
#25000
0J
#30000
1J
#31000
b11 M
#35000
0J
#40000
1J
#41000
b100 M
#45000
0J
#50000
1J
#51000
1K
b101 M
#52000
b1011111 I
b1011111 R
#55000
0J
#60000
b1 _
b1011111 T
0Z
b1 e
b0 H
b0 N
b0 ^
b1011111 S
1J
#61000
0K
b110 M
#65000
0J
#70000
1J
#71000
b111 M
#75000
0J
#80000
1J
#81000
b1000 M
#85000
0J
#90000
1J
#91000
b1001 M
#95000
0J
#100000
1J
#101000
1K
b1010 M
#102000
b0 _
1Z
b1011010 I
b1011010 R
#105000
0J
#110000
b0 a
b1011111 V
b10 _
b1011010 T
0Z
b10 e
b1011010 S
b1011111 U
b1 H
b1 N
b1 ^
b0 G
b0 O
b0 `
1J
#111000
0K
b1011 M
#115000
0J
#120000
1J
#121000
b1100 M
#125000
0J
#130000
1J
#131000
b1101 M
#135000
0J
#140000
1J
#141000
b1110 M
#145000
0J
#150000
1J
#151000
1K
b1111 M
#152000
b1 _
1Z
b1010101 I
b1010101 R
#155000
0J
#160000
b0 c
b1011111 X
b1 a
b1011010 V
b11 _
b1010101 T
0Z
b11 e
b0 F
b0 P
b0 b
b1 G
b1 O
b1 `
b10 H
b10 N
b10 ^
b1011111 W
b1011010 U
b1010101 S
1J
#161000
0K
b10000 M
#165000
0J
#170000
1J
#171000
b10001 M
#175000
0J
#180000
1J
#181000
b10010 M
#185000
0J
#190000
1J
#191000
b10011 M
#195000
0J
#200000
1J
#201000
1K
b10100 M
#202000
b10 _
1Z
b1010000 I
b1010000 R
#205000
0J
#210000
b1 c
b1011010 X
b10 a
b1010101 V
b100 _
b1010000 T
0Z
b100 e
b1010000 S
b1010101 U
b1011010 W
b1011111 Y
b11 H
b11 N
b11 ^
b10 G
b10 O
b10 `
b1 F
b1 P
b1 b
b0 E
b0 Q
b0 d
1J
#211000
0K
b10101 M
#215000
0J
#220000
1J
#221000
b10110 M
#225000
0J
#230000
1J
#231000
b10111 M
#235000
0J
#240000
1J
#241000
b11000 M
#245000
0J
#250000
1J
#251000
1K
b11001 M
#252000
b11 _
1Z
b1001011 I
b1001011 R
#255000
0J
#260000
b10 c
b1010101 X
b11 a
b1010000 V
b101 _
b1001011 T
0Z
b101 e
b1 E
b1 Q
b1 d
b10 F
b10 P
b10 b
b11 G
b11 O
b11 `
b100 H
b100 N
b100 ^
b1011010 Y
b1010101 W
b1010000 U
b1001011 S
1J
#261000
0K
b11010 M
#265000
0J
#270000
1J
#271000
b11011 M
#275000
0J
#280000
1J
#281000
b11100 M
#285000
0J
#290000
1J
#291000
b11101 M
#295000
0J
#300000
1J
#301000
1K
b11110 M
#302000
b100 _
1Z
b1000110 I
b1000110 R
#305000
0J
#310000
b11 c
b1010000 X
b100 a
b1001011 V
b110 _
b1000110 T
0Z
b110 e
b1000110 S
b1001011 U
b1010000 W
b1010101 Y
b101 H
b101 N
b101 ^
b100 G
b100 O
b100 `
b11 F
b11 P
b11 b
b10 E
b10 Q
b10 d
1J
#311000
0K
b11111 M
#315000
0J
#320000
1J
#321000
b100000 M
#325000
0J
#330000
1J
#331000
b100001 M
#335000
0J
#340000
1J
#341000
b100010 M
#345000
0J
#350000
1J
#351000
1K
b100011 M
#352000
b101 _
1Z
b1000001 I
b1000001 R
#355000
0J
#360000
b100 c
b1001011 X
b101 a
b1000110 V
b111 _
b1000001 T
0Z
b111 e
b11 E
b11 Q
b11 d
b100 F
b100 P
b100 b
b101 G
b101 O
b101 `
b110 H
b110 N
b110 ^
b1010000 Y
b1001011 W
b1000110 U
b1000001 S
1J
#361000
0K
b100100 M
#365000
0J
#370000
1J
#371000
b100101 M
#375000
0J
#380000
1J
#381000
b100110 M
#385000
0J
#390000
1J
#391000
b100111 M
#395000
0J
#400000
1J
#401000
1K
b101000 M
#402000
b110 _
1Z
b111100 I
b111100 R
#405000
0J
#410000
b101 c
b1000110 X
b110 a
b1000001 V
b1000 _
b111100 T
0Z
b1000 e
b111100 S
b1000001 U
b1000110 W
b1001011 Y
b111 H
b111 N
b111 ^
b110 G
b110 O
b110 `
b101 F
b101 P
b101 b
b100 E
b100 Q
b100 d
1J
#411000
0K
b101001 M
#415000
0J
#420000
1J
#421000
b101010 M
#425000
0J
#430000
1J
#431000
b101011 M
#435000
0J
#440000
1J
#441000
b101100 M
#445000
0J
#450000
1J
#451000
1K
b101101 M
#452000
b111 _
1Z
b110111 I
b110111 R
#455000
0J
#460000
b110 c
b1000001 X
b111 a
b111100 V
b1001 _
b110111 T
0Z
b1001 e
b101 E
b101 Q
b101 d
b110 F
b110 P
b110 b
b111 G
b111 O
b111 `
b1000 H
b1000 N
b1000 ^
b1000110 Y
b1000001 W
b111100 U
b110111 S
1J
#461000
0K
b101110 M
#465000
0J
#470000
1J
#471000
b101111 M
#475000
0J
#480000
1J
#481000
b110000 M
#485000
0J
#490000
1J
#491000
b110001 M
#495000
0J
#500000
1J
#501000
1K
b110010 M
#502000
b1000 _
1Z
b110010 I
b110010 R
#505000
0J
#510000
b111 c
b111100 X
b1000 a
b110111 V
b1010 _
b110010 T
0Z
b1010 e
b110010 S
b110111 U
b111100 W
b1000001 Y
b1001 H
b1001 N
b1001 ^
b1000 G
b1000 O
b1000 `
b111 F
b111 P
b111 b
b110 E
b110 Q
b110 d
1J
#511000
0K
b110011 M
#515000
0J
#520000
1J
#521000
b110100 M
#525000
0J
#530000
1J
#531000
b110101 M
#535000
0J
#540000
1J
#541000
b110110 M
#545000
0J
#550000
1J
#551000
1K
b110111 M
#552000
b1001 _
1Z
b101101 I
b101101 R
#555000
0J
#560000
b1000 c
b110111 X
b1001 a
b110010 V
b1011 _
b101101 T
0Z
b1011 e
b111 E
b111 Q
b111 d
b1000 F
b1000 P
b1000 b
b1001 G
b1001 O
b1001 `
b1010 H
b1010 N
b1010 ^
b111100 Y
b110111 W
b110010 U
b101101 S
1J
#561000
0K
b111000 M
#565000
0J
#570000
1J
#571000
b111001 M
#575000
0J
#580000
1J
#581000
b111010 M
#585000
0J
#590000
1J
#591000
b111011 M
#595000
0J
#600000
1J
#601000
1K
b111100 M
#602000
b1010 _
1Z
b101000 I
b101000 R
#605000
0J
#610000
b1001 c
b110010 X
b1010 a
b101101 V
b1100 _
b101000 T
0Z
b1100 e
b101000 S
b101101 U
b110010 W
b110111 Y
b1011 H
b1011 N
b1011 ^
b1010 G
b1010 O
b1010 `
b1001 F
b1001 P
b1001 b
b1000 E
b1000 Q
b1000 d
1J
#611000
0K
b111101 M
#615000
0J
#620000
1J
#621000
b111110 M
#625000
0J
#630000
1J
#631000
b111111 M
#635000
0J
#640000
1J
#641000
b1000000 M
#645000
0J
#650000
1J
#651000
1K
b1000001 M
#652000
b1011 _
1Z
b100011 I
b100011 R
#655000
0J
#660000
b1010 c
b101101 X
b1011 a
b101000 V
b1101 _
b100011 T
0Z
b1101 e
b1001 E
b1001 Q
b1001 d
b1010 F
b1010 P
b1010 b
b1011 G
b1011 O
b1011 `
b1100 H
b1100 N
b1100 ^
b110010 Y
b101101 W
b101000 U
b100011 S
1J
#661000
0K
b1000010 M
#665000
0J
#670000
1J
#671000
b1000011 M
#675000
0J
#680000
1J
#681000
b1000100 M
#685000
0J
#690000
1J
#691000
b1000101 M
#695000
0J
#700000
1J
#701000
1K
b1000110 M
#702000
b1100 _
1Z
b11110 I
b11110 R
#705000
0J
#710000
b1011 c
b101000 X
b1100 a
b100011 V
b1110 _
b11110 T
0Z
b1110 e
b11110 S
b100011 U
b101000 W
b101101 Y
b1101 H
b1101 N
b1101 ^
b1100 G
b1100 O
b1100 `
b1011 F
b1011 P
b1011 b
b1010 E
b1010 Q
b1010 d
1J
#711000
0K
b1000111 M
#715000
0J
#720000
1J
#721000
b1001000 M
#725000
0J
#730000
1J
#731000
b1001001 M
#735000
0J
#740000
1J
#741000
b1001010 M
#745000
0J
#750000
1J
#751000
1K
b1001011 M
#752000
b1101 _
1Z
b11001 I
b11001 R
#755000
0J
#760000
b1100 c
b100011 X
b1101 a
b11110 V
b1111 _
b11001 T
0Z
b1111 e
b1011 E
b1011 Q
b1011 d
b1100 F
b1100 P
b1100 b
b1101 G
b1101 O
b1101 `
b1110 H
b1110 N
b1110 ^
b101000 Y
b100011 W
b11110 U
b11001 S
1J
#761000
0K
b1001100 M
#765000
0J
#770000
1J
#771000
b1001101 M
#775000
0J
#780000
1J
#781000
b1001110 M
#785000
0J
#790000
1J
#791000
b1001111 M
#795000
0J
#800000
1J
#801000
1K
b1010000 M
#802000
b1110 _
1Z
b10100 I
b10100 R
#805000
0J
#810000
b1101 c
b11110 X
b1110 a
b11001 V
b10000 _
b10100 T
0Z
b10000 e
b10100 S
b11001 U
b11110 W
b100011 Y
b1111 H
b1111 N
b1111 ^
b1110 G
b1110 O
b1110 `
b1101 F
b1101 P
b1101 b
b1100 E
b1100 Q
b1100 d
1J
#811000
0K
b1010001 M
#815000
0J
#820000
1J
#821000
b1010010 M
#825000
0J
#830000
1J
#831000
b1010011 M
#835000
0J
#840000
1J
#841000
b1010100 M
#845000
0J
#850000
1J
#851000
1K
b1010101 M
#852000
b1111 _
1Z
b1111 I
b1111 R
#855000
0J
#860000
b1110 c
b11001 X
b1111 a
b10100 V
b10001 _
b1111 T
0Z
b10001 e
b1101 E
b1101 Q
b1101 d
b1110 F
b1110 P
b1110 b
b1111 G
b1111 O
b1111 `
b10000 H
b10000 N
b10000 ^
b11110 Y
b11001 W
b10100 U
b1111 S
1J
#861000
0K
b1010110 M
#865000
0J
#870000
1J
#871000
b1010111 M
#875000
0J
#880000
1J
#881000
b1011000 M
#885000
0J
#890000
1J
#891000
b1011001 M
#895000
0J
#900000
1J
#901000
1K
b1011010 M
#902000
b10000 _
1Z
b1010 I
b1010 R
#905000
0J
#910000
b1111 c
b10100 X
b10000 a
b1111 V
b10010 _
b1010 T
0Z
b10010 e
b1010 S
b1111 U
b10100 W
b11001 Y
b10001 H
b10001 N
b10001 ^
b10000 G
b10000 O
b10000 `
b1111 F
b1111 P
b1111 b
b1110 E
b1110 Q
b1110 d
1J
#911000
0K
b1011011 M
#915000
0J
#920000
1J
#921000
b1011100 M
#925000
0J
#930000
1J
#931000
b1011101 M
#935000
0J
#940000
1J
#941000
b1011110 M
#945000
0J
#950000
1J
#951000
1K
b1011111 M
#952000
b10001 _
1Z
b101 I
b101 R
#955000
0J
#960000
b10000 c
b1111 X
b10001 a
b1010 V
b10011 _
b101 T
0Z
b10011 e
b1111 E
b1111 Q
b1111 d
b10000 F
b10000 P
b10000 b
b10001 G
b10001 O
b10001 `
b10010 H
b10010 N
b10010 ^
b10100 Y
b1111 W
b1010 U
b101 S
1J
#961000
0K
b1100000 M
#965000
0J
#970000
1J
#971000
b1100001 M
#975000
0J
#980000
1J
#981000
b1100010 M
#985000
0J
#990000
1J
#991000
b1100011 M
#995000
0J
#1000000
1J
#1001000
b1100100 M
