hardware/simulation/icarus/knn.vcd
$date
	Mon Nov 30 16:48:41 2020
$end
$version
	Icarus Verilog
$end
$timescale
	1ps
$end
$scope module iob_knn $end
$var wire 3 ! address [2:0] $end
$var wire 1 " clk $end
$var wire 32 # rdata [31:0] $end
$var wire 1 $ ready $end
$var wire 1 % rst $end
$var wire 1 & valid $end
$var wire 32 ' wdata [31:0] $end
$var wire 4 ( wstrb [3:0] $end
$var wire 8 ) DATA_OUT [7:0] $end
$var reg 16 * DATA_X1 [15:0] $end
$var reg 16 + DATA_X2 [15:0] $end
$var reg 16 , DATA_Y1 [15:0] $end
$var reg 16 - DATA_Y2 [15:0] $end
$var reg 1 . DONE $end
$var reg 1 / KNN_RESET $end
$var reg 2 0 SEL [1:0] $end
$var reg 32 1 rdata_int [31:0] $end
$var reg 1 2 ready_int $end
$var reg 1 3 rst_int $end
$var reg 1 4 write $end
$scope module sorter0 $end
$var wire 8 5 DATA_OUT [7:0] $end
$var wire 16 6 DATA_X1 [15:0] $end
$var wire 16 7 DATA_X2 [15:0] $end
$var wire 16 8 DATA_Y1 [15:0] $end
$var wire 16 9 DATA_Y2 [15:0] $end
$var wire 1 . DONE $end
$var wire 2 : SEL [1:0] $end
$var wire 1 " clk $end
$var wire 1 & ready $end
$var wire 1 3 rst $end
$var reg 32 ; DATA0_OUT_INT [31:0] $end
$var reg 32 < DATA1_IN_INT [31:0] $end
$var reg 32 = DATA1_OUT_INT [31:0] $end
$var reg 32 > DATA2_IN_INT [31:0] $end
$var reg 32 ? DATA2_OUT_INT [31:0] $end
$var reg 32 @ DATA3_IN_INT [31:0] $end
$var reg 32 A DATA3_OUT_INT [31:0] $end
$var reg 32 B DIST [31:0] $end
$var reg 1 C c0 $end
$var reg 1 D c1 $end
$var reg 1 E c2 $end
$var reg 1 F c3 $end
$var reg 8 G idx0_out [7:0] $end
$var reg 8 H idx1_cnt_int [7:0] $end
$var reg 8 I idx1_out [7:0] $end
$var reg 8 J idx2_cnt_int [7:0] $end
$var reg 8 K idx2_out [7:0] $end
$var reg 8 L idx3_cnt_int [7:0] $end
$var reg 8 M idx3_out [7:0] $end
$var reg 8 N idx_cnt [7:0] $end
$var reg 8 O idx_out [7:0] $end
$var reg 32 P sqr1 [31:0] $end
$var reg 32 Q sqr2 [31:0] $end
$var reg 32 R sub1 [31:0] $end
$var reg 32 S sub2 [31:0] $end
$upscope $end
$upscope $end
$scope module knn_tb $end
$var wire 8 T DATA_OUT [7:0] $end
$var reg 16 U DATA_X1 [15:0] $end
$var reg 16 V DATA_X2 [15:0] $end
$var reg 16 W DATA_Y1 [15:0] $end
$var reg 16 X DATA_Y2 [15:0] $end
$var reg 1 Y DONE $end
$var reg 2 Z SEL [1:0] $end
$var reg 1 [ clk $end
$var reg 1 \ ready $end
$var reg 1 ] rst $end
$var integer 32 ^ i [31:0] $end
$var integer 32 _ k [31:0] $end
$scope module sorter0 $end
$var wire 8 ` DATA_OUT [7:0] $end
$var wire 16 a DATA_X1 [15:0] $end
$var wire 16 b DATA_X2 [15:0] $end
$var wire 16 c DATA_Y1 [15:0] $end
$var wire 16 d DATA_Y2 [15:0] $end
$var wire 1 Y DONE $end
$var wire 2 e SEL [1:0] $end
$var wire 1 [ clk $end
$var wire 1 \ ready $end
$var wire 1 ] rst $end
$var reg 32 f DATA0_OUT_INT [31:0] $end
$var reg 32 g DATA1_IN_INT [31:0] $end
$var reg 32 h DATA1_OUT_INT [31:0] $end
$var reg 32 i DATA2_IN_INT [31:0] $end
$var reg 32 j DATA2_OUT_INT [31:0] $end
$var reg 32 k DATA3_IN_INT [31:0] $end
$var reg 32 l DATA3_OUT_INT [31:0] $end
$var reg 32 m DIST [31:0] $end
$var reg 1 n c0 $end
$var reg 1 o c1 $end
$var reg 1 p c2 $end
$var reg 1 q c3 $end
$var reg 8 r idx0_out [7:0] $end
$var reg 8 s idx1_cnt_int [7:0] $end
$var reg 8 t idx1_out [7:0] $end
$var reg 8 u idx2_cnt_int [7:0] $end
$var reg 8 v idx2_out [7:0] $end
$var reg 8 w idx3_cnt_int [7:0] $end
$var reg 8 x idx3_out [7:0] $end
$var reg 8 y idx_cnt [7:0] $end
$var reg 8 z idx_out [7:0] $end
$var reg 32 { sqr1 [31:0] $end
$var reg 32 | sqr2 [31:0] $end
$var reg 32 } sub1 [31:0] $end
$var reg 32 ~ sub2 [31:0] $end
$upscope $end
$upscope $end
$enddefinitions $end
#0
$dumpvars
bx ~
bx }
bx |
bx {
bx z
bx y
bx x
bx w
bx v
bx u
bx t
bx s
bx r
0q
0p
0o
0n
bx m
bx l
bx k
bx j
bx i
bx h
bx g
bx f
b0 e
bx d
b0 c
bx b
b0 a
bx `
bx _
bx ^
0]
0\
1[
b0 Z
0Y
bx X
b0 W
bx V
b0 U
bx T
bx S
bx R
bx Q
bx P
bx O
bx N
bx M
bx L
bx K
bx J
bx I
bx H
bx G
xF
xE
xD
xC
bx B
bx A
bx @
bx ?
bx >
bx =
bx <
bx ;
bx :
bx 9
bx 8
bx 7
bx 6
bx 5
x4
x3
x2
b0 1
bx 0
x/
x.
bx -
bx ,
bx +
bx *
bx )
bz (
bz '
z&
z%
x$
b0 #
z"
bz !
$end
#5000
0[
#7000
b0 w
b0 u
b0 s
b0 y
1]
#10000
b0 T
b0 `
b0 z
b11111111111111111111111111111111 f
b11111111111111111111111111111111 h
b11111111111111111111111111111111 j
b11111111111111111111111111111111 l
b0 r
b0 t
b0 v
b0 x
1[
#15000
0[
#17000
b1 ^
0]
#20000
b10 ^
1[
#25000
0[
#30000
b11 ^
1[
#35000
0[
#40000
b100 ^
1[
#45000
0[
#50000
b1 y
1q
b11111111111111111111111111111111 k
1p
b11111111111111111111111111111111 i
1o
b11111111111111111111111111111111 g
1n
b110101001 m
b101101001 |
b1000000 {
b10011 ~
b11111111111111111111111111111000 }
b1111111111101101 X
b1111111111101101 d
b1000 V
b1000 b
1\
b101 ^
1[
#55000
0[
#60000
0\
b110 ^
1[
#65000
0[
#70000
b111 ^
1[
#75000
0[
#80000
b1000 ^
1[
#85000
0[
#90000
b1001 ^
1[
#95000
0[
#100000
b1 T
b1 `
b1 z
b10 s
b110111010 g
0n
b10 y
b1 r
b110101001 f
b110111010 m
b1010001 |
b101101001 {
b1001 ~
b10011 }
b1111111111110111 X
b1111111111110111 d
b1111111111101101 V
b1111111111101101 b
1\
b1010 ^
1[
#105000
0[
#110000
b10 u
b110111010 i
0o
b110111010 h
b10 t
0\
b1011 ^
1[
#115000
0[
#120000
b1100 ^
1[
#125000
0[
#130000
b1101 ^
1[
#135000
0[
#140000
b1110 ^
1[
#145000
0[
#150000
b11 u
b11 s
b11 y
b1001000010 i
b1001000010 g
b1001000010 m
b100100001 |
b100100001 {
b11111111111111111111111111101111 ~
b11111111111111111111111111101111 }
b10001 X
b10001 d
b10001 V
b10001 b
1\
b1111 ^
1[
#155000
0[
#160000
0\
b10000 ^
1[
#165000
0[
#170000
b10001 ^
1[
#175000
0[
#180000
b10010 ^
1[
#185000
0[
#190000
b10011 ^
1[
#195000
0[
#200000
b11 w
b1001000010 k
b100 y
b11 v
b1001000010 j
b10 u
b110111010 i
1o
b1 s
b110101001 g
1n
b100111101 m
b11000100 |
b1111001 {
b1110 ~
b1011 }
b1111111111110010 X
b1111111111110010 d
b1111111111110101 V
b1111111111110101 b
1\
b10100 ^
1[
#205000
0[
#210000
b10 w
b110111010 k
b1 u
b110101001 i
b100 s
b100111101 g
0n
b100 T
b100 `
b100 z
b100111101 f
b110101001 h
b110111010 j
b1001000010 l
b100 r
b1 t
b10 v
b11 x
0\
b10101 ^
1[
#215000
0[
#220000
b10110 ^
1[
#225000
0[
#230000
b10111 ^
1[
#235000
0[
#240000
b11000 ^
1[
#245000
0[
#250000
b101 y
1n
b1010010 m
b1010001 |
b1 {
b11111111111111111111111111110111 ~
b11111111111111111111111111111111 }
b1001 X
b1001 d
b1 V
b1 b
1\
b11001 ^
1[
#255000
0[
#260000
0\
b11010 ^
1[
#265000
0[
#270000
b11011 ^
1[
#275000
0[
#280000
b11100 ^
1[
#285000
0[
#290000
b11101 ^
1[
#295000
0[
#300000
b101 T
b101 `
b101 z
b110 y
b10 x
b1 v
b100 t
b101 r
b110111010 l
b110101001 j
b100111101 h
b1010010 f
0q
b110 w
b1001100101 k
0p
b110 u
b1001100101 i
0o
b110 s
b1001100101 g
0n
b1001100101 m
b100100001 |
b101000100 {
b11111111111111111111111111101111 ~
b11111111111111111111111111101110 }
b10001 X
b10001 d
b10010 V
b10010 b
1\
b11110 ^
1[
#305000
0[
#310000
0\
b11111 ^
1[
#315000
0[
#320000
b100000 ^
1[
#325000
0[
#330000
b100001 ^
1[
#335000
0[
#340000
b100010 ^
1[
#345000
0[
#350000
b111 s
b111 y
1q
b1 w
b110101001 k
1p
b100 u
b100111101 i
1o
b11100001 g
b11100001 m
b10010000 |
b1010001 {
b11111111111111111111111111110100 ~
b11111111111111111111111111110111 }
b1100 X
b1100 d
b1001 V
b1001 b
1\
b100011 ^
1[
#355000
0[
#360000
0\
b100100 ^
1[
#365000
0[
#370000
b100101 ^
1[
#375000
0[
#380000
b100110 ^
1[
#385000
0[
#390000
b100111 ^
1[
#395000
0[
#400000
b100 w
b100111101 k
b111 u
b11100001 i
b1000 s
b1000 y
b1 x
b100 v
b111 t
b110101001 l
b100111101 j
b11100001 h
b10110101 g
b10110101 m
b1100100 |
b1010 ~
b1111111111110110 X
b1111111111110110 d
1\
b101000 ^
1[
#405000
0[
#410000
b111 w
b11100001 k
b1000 u
b10110101 i
0o
b10110101 h
b11100001 j
b100111101 l
b1000 t
b111 v
b100 x
0\
b101001 ^
1[
#415000
0[
#420000
b101010 ^
1[
#425000
0[
#430000
b101011 ^
1[
#435000
0[
#440000
b101100 ^
1[
#445000
0[
#450000
b1001 u
b1001 s
b1001 y
0q
b1001 w
b1000101101 k
0p
b1000101101 i
b1000101101 g
b1000101101 m
b11000100 |
b101101001 {
b1110 ~
b10011 }
b1111111111110010 X
b1111111111110010 d
b1111111111101101 V
b1111111111101101 b
1\
b101101 ^
1[
#455000
0[
#460000
0\
b101110 ^
1[
#465000
0[
#470000
b101111 ^
1[
#475000
0[
#480000
b110000 ^
1[
#485000
0[
#490000
b110001 ^
1[
#495000
0[
#500000
b1010 y
1q
b111 w
b11100001 k
1p
b1000 u
b10110101 i
1o
b101 s
b1010010 g
1n
b11010 m
b1 |
b11001 {
b1 ~
b11111111111111111111111111111011 }
b1111111111111111 X
b1111111111111111 d
b101 V
b101 b
1\
b110010 ^
1[
#505000
0[
#510000
b1000 w
b10110101 k
b101 u
b1010010 i
b1010 s
b11010 g
0n
b1010 T
b1010 `
b1010 z
b11010 f
b1010010 h
b10110101 j
b11100001 l
b1010 r
b101 t
b1000 v
b111 x
0\
b110011 ^
1[
#515000
0[
#520000
b110100 ^
1[
#525000
0[
#530000
b110101 ^
1[
#535000
0[
#540000
b110110 ^
1[
#545000
0[
#550000
b1011 s
b1011 y
0q
b1011 w
b101101101 k
0p
b1011 u
b101101101 i
0o
b101101101 g
b101101101 m
b101101001 |
b100 {
b11111111111111111111111111101101 ~
b10 }
b10011 X
b10011 d
b1111111111111110 V
b1111111111111110 b
1\
b110111 ^
1[
#555000
0[
#560000
0\
b111000 ^
1[
#565000
0[
#570000
b111001 ^
1[
#575000
0[
#580000
b111010 ^
1[
#585000
0[
#590000
b111011 ^
1[
#595000
0[
#600000
b1100 s
b1100 y
1q
b1000 w
b10110101 k
1p
b101 u
b1010010 i
1o
b1001000 g
b1001000 m
b100100 |
b100100 {
b110 ~
b11111111111111111111111111111010 }
b1111111111111010 X
b1111111111111010 d
b110 V
b110 b
1\
b111100 ^
1[
#605000
0[
#610000
b101 w
b1010010 k
b1100 u
b1001000 i
0o
b1001000 h
b1010010 j
b10110101 l
b1100 t
b101 v
b1000 x
0\
b111101 ^
1[
#615000
0[
#620000
b111110 ^
1[
#625000
0[
#630000
b111111 ^
1[
#635000
0[
#640000
b1000000 ^
1[
#645000
0[
#650000
b1101 u
b1101 s
b1101 y
b1001001 i
b1001001 g
b1001001 m
b1001 |
b1000000 {
b11 ~
b1000 }
b1111111111111101 X
b1111111111111101 d
b1111111111111000 V
b1111111111111000 b
1\
b1000001 ^
1[
#655000
0[
#660000
0\
b1000010 ^
1[
#665000
0[
#670000
b1000011 ^
1[
#675000
0[
#680000
b1000100 ^
1[
#685000
0[
#690000
b1000101 ^
1[
#695000
0[
#700000
b1101 w
b1001001 k
b1110 y
b101 x
b1101 v
b1010010 l
b1001001 j
b1100 u
b1001000 i
1o
b1010 s
b11010 g
1n
b11001 m
b10000 {
b11111111111111111111111111111100 }
b100 V
b100 b
1\
b1000110 ^
1[
#705000
0[
#710000
b1100 w
b1001000 k
b1010 u
b11010 i
b1110 s
b11001 g
0n
b1110 T
b1110 `
b1110 z
b11001 f
b11010 h
b1001000 j
b1001001 l
b1110 r
b1010 t
b1100 v
b1101 x
0\
b1000111 ^
1[
#715000
0[
#720000
b1001000 ^
1[
#725000
0[
#730000
b1001001 ^
1[
#735000
0[
#740000
b1001010 ^
1[
#745000
0[
#750000
b1111 s
b1111 y
0q
b1111 w
b1100010 k
0p
b1111 u
b1100010 i
0o
b1100010 g
b1100010 m
b110001 |
b110001 {
b111 ~
b111 }
b1111111111111001 X
b1111111111111001 d
b1111111111111001 V
b1111111111111001 b
1\
b1001011 ^
1[
#755000
0[
#760000
0\
b1001100 ^
1[
#765000
0[
#770000
b1001101 ^
1[
#775000
0[
#780000
b1001110 ^
1[
#785000
0[
#790000
b1001111 ^
1[
#795000
0[
#800000
b10000 w
b10000 u
b10000 s
b10000 y
b100001101 k
b100001101 i
b100001101 g
b100001101 m
b1100100 |
b10101001 {
b11111111111111111111111111110110 ~
b1101 }
b1010 X
b1010 d
b1111111111110011 V
b1111111111110011 b
1\
b1010000 ^
1[
#805000
0[
#810000
0\
b1010001 ^
1[
#815000
0[
#820000
b1010010 ^
1[
#825000
0[
#830000
b1010011 ^
1[
#835000
0[
#840000
b1010100 ^
1[
#845000
0[
#850000
b10001 w
b10001 u
b10001 s
b10001 y
b101000000 k
b101000000 i
b101000000 g
b101000000 m
b100000000 |
b1000000 {
b11111111111111111111111111110000 ~
b1000 }
b10000 X
b10000 d
b1111111111111000 V
b1111111111111000 b
1\
b1010101 ^
1[
#855000
0[
#860000
0\
b1010110 ^
1[
#865000
0[
#870000
b1010111 ^
1[
#875000
0[
#880000
b1011000 ^
1[
#885000
0[
#890000
b1011001 ^
1[
#895000
0[
#900000
b10010 w
b10010 u
b10010 s
b10010 y
b110100101 k
b110100101 i
b110100101 g
b110100101 m
b11100001 |
b11000100 {
b1111 ~
b11111111111111111111111111110010 }
b1111111111110001 X
b1111111111110001 d
b1110 V
b1110 b
1\
b1011010 ^
1[
#905000
0[
#910000
0\
b1011011 ^
1[
#915000
0[
#920000
b1011100 ^
1[
#925000
0[
#930000
b1011101 ^
1[
#935000
0[
#940000
b1011110 ^
1[
#945000
0[
#950000
b10011 w
b10011 u
b10011 s
b10011 y
b11011101 k
b11011101 i
b11011101 g
b11011101 m
b11001 |
b101 ~
b1110 }
b1111111111111011 X
b1111111111111011 d
b1111111111110010 V
b1111111111110010 b
1\
b1011111 ^
1[
#955000
0[
#960000
0\
b1100000 ^
1[
#965000
0[
#970000
b1100001 ^
1[
#975000
0[
#980000
b1100010 ^
1[
#985000
0[
#990000
b1100011 ^
1[
#995000
0[
#1000000
b0 _
1Y
b1100100 ^
1[
#1005000
0[
#1010000
b1010 T
b1010 `
b1010 z
b1 Z
b1 e
b1 _
1[
#1015000
0[
#1020000
b1100 T
b1100 `
b1100 z
b10 Z
b10 e
b10 _
1[
#1025000
0[
#1030000
b1101 T
b1101 `
b1101 z
b11 Z
b11 e
b11 _
1[
#1035000
0[
#1040000
b100 _
1[
