hardware/simulation/icarus/knn.vcd
$date
	Sun Nov 22 20:52:06 2020
$end
$version
	Icarus Verilog
$end
$timescale
	1ps
$end
$scope module iob_knn $end
$var wire 3 ! address [2:0] $end
$var wire 1 " clk $end
$var wire 32 # rdata [31:0] $end
$var wire 1 $ ready $end
$var wire 1 % rst $end
$var wire 1 & valid $end
$var wire 32 ' wdata [31:0] $end
$var wire 4 ( wstrb [3:0] $end
$var wire 32 ) DATA_OUT [31:0] $end
$var reg 32 * DATA_X1 [31:0] $end
$var reg 32 + DATA_X2 [31:0] $end
$var reg 32 , DATA_Y1 [31:0] $end
$var reg 32 - DATA_Y2 [31:0] $end
$var reg 1 . KNN_ENABLE $end
$var reg 1 / KNN_RESET $end
$var reg 32 0 rdata_int [31:0] $end
$var reg 1 1 ready_int $end
$var reg 1 2 rst_int $end
$var reg 1 3 write $end
$scope module d0 $end
$var wire 32 4 DATA_OUT [31:0] $end
$var wire 32 5 DATA_X1 [31:0] $end
$var wire 32 6 DATA_X2 [31:0] $end
$var wire 32 7 DATA_Y1 [31:0] $end
$var wire 32 8 DATA_Y2 [31:0] $end
$var reg 32 9 result [31:0] $end
$var reg 32 : sqr1 [31:0] $end
$var reg 32 ; sqr2 [31:0] $end
$var reg 32 < sub1 [31:0] $end
$var reg 32 = sub2 [31:0] $end
$upscope $end
$upscope $end
$scope module knn_tb $end
$var wire 32 > KNN_DATA_OUT [31:0] $end
$var wire 32 ? DATA_OUT [31:0] $end
$var reg 32 @ DATA_X1 [31:0] $end
$var reg 32 A DATA_X2 [31:0] $end
$var reg 32 B DATA_Y1 [31:0] $end
$var reg 32 C DATA_Y2 [31:0] $end
$var reg 32 D KNN_DATA_IN [31:0] $end
$var reg 1 E KNN_ENABLE $end
$var reg 1 F clk $end
$var reg 1 G rst $end
$var integer 32 H i [31:0] $end
$scope module d0 $end
$var wire 32 I DATA_OUT [31:0] $end
$var wire 32 J DATA_X1 [31:0] $end
$var wire 32 K DATA_X2 [31:0] $end
$var wire 32 L DATA_Y1 [31:0] $end
$var wire 32 M DATA_Y2 [31:0] $end
$var reg 32 N result [31:0] $end
$var reg 32 O sqr1 [31:0] $end
$var reg 32 P sqr2 [31:0] $end
$var reg 32 Q sub1 [31:0] $end
$var reg 32 R sub2 [31:0] $end
$upscope $end
$scope module knn0 $end
$var wire 32 S KNN_DATA_IN [31:0] $end
$var wire 32 T KNN_DATA_OUT [31:0] $end
$var wire 1 E KNN_ENABLE $end
$var wire 1 F clk $end
$var wire 1 G rst $end
$upscope $end
$upscope $end
$enddefinitions $end
#0
$dumpvars
b0 T
b0 S
bx R
bx Q
bx P
bx O
bx N
bx M
bx L
bx K
bx J
bx I
bx H
0G
1F
0E
b0 D
bx C
bx B
bx A
bx @
bx ?
b0 >
bx =
bx <
bx ;
bx :
bx 9
bx 8
bx 7
bx 6
bx 5
bx 4
x3
x2
x1
b0 0
x/
x.
bx -
bx ,
bx +
bx *
bx )
bz (
bz '
z&
z%
x$
b0 #
z"
bz !
$end
#5000
0F
#7000
1G
#10000
1F
#15000
0F
#17000
0G
#20000
1F
#21000
1E
#25000
0F
#30000
1F
#35000
0F
#40000
1F
b1 H
b1000101 >
b1000101 T
b1000101 D
b1000101 S
#41000
b10 ?
b10 I
b10 N
b1 P
b1 O
b11111111111111111111111111111111 R
b11111111111111111111111111111111 Q
b10 H
b10 C
b10 M
b1 B
b1 L
b10 A
b10 K
b1 @
b1 J
#45000
0F
#50000
1F
#51000
b1000 ?
b1000 I
b1000 N
b100 P
b100 O
b11111111111111111111111111111110 R
b11111111111111111111111111111110 Q
b11 H
b100 C
b100 M
b10 B
b10 L
b100 A
b100 K
b10 @
b10 J
#55000
0F
#60000
1F
#61000
b10010 ?
b10010 I
b10010 N
b1001 P
b1001 O
b11111111111111111111111111111101 R
b11111111111111111111111111111101 Q
b100 H
b110 C
b110 M
b11 B
b11 L
b110 A
b110 K
b11 @
b11 J
#65000
0F
#70000
1F
#71000
b100000 ?
b100000 I
b100000 N
b10000 P
b10000 O
b11111111111111111111111111111100 R
b11111111111111111111111111111100 Q
b101 H
b1000 C
b1000 M
b100 B
b100 L
b1000 A
b1000 K
b100 @
b100 J
#75000
0F
#80000
1F
#81000
b110010 ?
b110010 I
b110010 N
b11001 P
b11001 O
b11111111111111111111111111111011 R
b11111111111111111111111111111011 Q
b110 H
b1010 C
b1010 M
b101 B
b101 L
b1010 A
b1010 K
b101 @
b101 J
#85000
0F
#90000
1F
#91000
b1001000 ?
b1001000 I
b1001000 N
b100100 P
b100100 O
b11111111111111111111111111111010 R
b11111111111111111111111111111010 Q
b111 H
b1100 C
b1100 M
b110 B
b110 L
b1100 A
b1100 K
b110 @
b110 J
#95000
0F
#100000
1F
#101000
b1100010 ?
b1100010 I
b1100010 N
b110001 P
b110001 O
b11111111111111111111111111111001 R
b11111111111111111111111111111001 Q
b1000 H
b1110 C
b1110 M
b111 B
b111 L
b1110 A
b1110 K
b111 @
b111 J
#105000
0F
#110000
1F
#111000
b10000000 ?
b10000000 I
b10000000 N
b1000000 P
b1000000 O
b11111111111111111111111111111000 R
b11111111111111111111111111111000 Q
b1001 H
b10000 C
b10000 M
b1000 B
b1000 L
b10000 A
b10000 K
b1000 @
b1000 J
#115000
0F
#120000
1F
#121000
b10100010 ?
b10100010 I
b10100010 N
b1010001 P
b1010001 O
b11111111111111111111111111110111 R
b11111111111111111111111111110111 Q
b1010 H
b10010 C
b10010 M
b1001 B
b1001 L
b10010 A
b10010 K
b1001 @
b1001 J
